fonds/collection, nr of charters
ChroniconBenedictobur, 277
OrdinisTheutonici, 725
IT-ASFi, 0
IT-ASFi/DNLaschi, 1
IT-ASFi/DNParigi, 1
IT-ASFi/DNSienaSVigilio, 885
IT-ASFi/DNFirenzeSAgata, 60
IT-ASFi/DNMannelliGalileiRiccardi, 178
IT-ASFi/DNFirenzeSAnna, 89
IT-ASFi/DNDainelli, 1
IT-ASFi/DNSanMiniatoAlTedescoSFrancesco, 3
IT-ASFi/DNGuiducci, 1
IT-ASFi/DNAdespote, 5
IT-ASFi/DNFirenzeSSpiritoCosta, 2
IT-ASFi/DNGalletti, 8
IT-ASFi/DNCastelFrancoDiSottoComune, 31
IT-ASFi/DNBadiaArdenghesca, 5
IT-ASFi/DNFoianoComune, 6
IT-ASFi/DNVolterraSMariaMaddalena, 1
IT-ASFi/DNUrbino, 101
IT-ASFi/DNMaianoSMartino, 27
IT-ASFi/DNMarchi, 328
IT-ASFi/DNBientina, 1
IT-ASFi/DNFirenzeSGiovanniBoldrone, 58
IT-ASFi/DNBuggianoComune, 11
IT-ASFi/DNRistori, 4
IT-ASFi/DNVezzoniMuzzarelli, 40
IT-ASFi/DNCapitaniOrsanmichele, 219
IT-ASFi/DNUbaldiniVaiGeppi, 121
IT-ASFi/DNSanMiniatoAlTedescoSChiara, 7
IT-ASFi/DNVettori, 9
IT-ASFi/DNAdespoteCoperte, 932
IT-ASFi/DNMontelatici, 1
IT-ASFi/DNLeonetti, 5
IT-ASFi/DNMonticelliSPietro, 66
IT-ASFi/DNMazzei, 6
IT-ASFi/DNFirenzeSMatteo, 302
IT-ASFi/DNSoldaini, 14
IT-ASFi/DNPietrasantaComune, 9
IT-ASFi/DNMonteVarchiSLudovico, 13
IT-ASFi/DNFirenzeSPierMaggiore, 275
IT-ASFi/DNFirenzeSFrediano, 2154
IT-ASFi/DNGonnelli, 3
IT-ASFi/DNBrighi, 29
IT-ASFi/DNFirenzeSTrinitaPoppi, 336
IT-ASFi/DNSantaCroceValdarnoSCristiana, 505
IT-ASFi/ArteCambio, 105
IT-ASFi/DNUfficialiDeiPupilli, 169
IT-ASFi/DNFirenzeSIacopoRipoli, 84
IT-ASFi/DNFederighi, 12
IT-ASFi/DNFranciolini, 4
IT-ASFi/DNPassignanoSMichele, 5419
IT-ASFi/DNPratoSStefano, 585
IT-ASFi/DNFiaschi, 1
IT-ASFi/DNPasqui, 26
IT-ASFi/DNColleValDElsaSFrancesco, 1
IT-ASFi/DNRosanoSmaAnnunziata, 96
IT-ASFi/DNSalvi, 46
IT-ASFi/DNAdespoteBencini, 1
IT-ASFi/DNCastiglionFiorentinoSGirolamo, 1
IT-ASFi/DNMediciTornaquinci, 1
IT-ASFi/DNRadicondoliSCaterinaDelleRuote, 91
IT-ASFi/DNFirenzeSMariaDellaBadia, 1727
IT-ASFi/DNFirenzeSPancrazio, 465
IT-ASFi/DNArezzoSmaTrinita, 17
IT-ASFi/DNSanMiniatoAlTedescoSIacopo, 31
IT-ASFi/DNPini, 59
IT-ASFi/DNPiombinoCorporazioniReligioseSoppresse, 55
IT-ASFi/DNPiccardi, 1
IT-ASFi/DNRicci, 353
IT-ASFi/DNFondati, 7
IT-ASFi/DNCostantini, 22
IT-ASFi/DNTidi, 89
IT-ASFi/DNPistoiaPatrimonioEcclesiastico, 747
IT-ASFi/DNCamaldoliOspizio, 61
IT-ASFi/DNGrazzini, 32
IT-ASFi/DNPontremoliComune, 1
IT-ASFi/DNSanGimignanoSAgostino, 3
IT-ASFi/DNQuaratesi, 20
IT-ASFi/DNCamaldoli, 4112
IT-ASFi/DNRiformagioniClasseXV, 14
IT-ASFi/DNPratoSacroCingolo, 23
IT-ASFi/DNBrogialdi, 2
IT-ASFi/DNMorelli, 1
IT-ASFi/DNBrunetti, 5
IT-ASFi/DNGimignanoSMariaRomite, 82
IT-ASFi/DNPeruzziDeMedici, 58
IT-ASFi/DNDaSommaia, 27
IT-ASFi/DNPoggiolini, 2
IT-ASFi/DNCortoneSMariaDeiServi, 10
IT-ASFi/DNNelli, 59
IT-ASFi/DNConti, 3
IT-ASFi/DNCastiglionFiorentinoSMaria, 21
IT-ASFi/DNSienaSAgostino, 1
IT-ASFi/DNRegioFisco, 62
IT-ASFi/DNTraballesi, 5
IT-ASFi/DNPistoiaSZenone, 1694
IT-ASFi/DNGennarelli, 3
IT-ASFi/DNDecimaGranducale, 23
IT-ASFi/DNMenicucci, 1
IT-ASFi/DNCastelFiorentinoComune, 18
IT-ASFi/DNSanGimignanoComune, 484
IT-ASFi/DNPalagi, 3
IT-ASFi/DNCeccherini, 3
IT-ASFi/DNCaprini, 287
IT-ASFi/DNPieracci, 5
IT-ASFi/DNCecchi, 5
IT-ASFi/DNSanGimignanoSGirolamo, 25
IT-ASFi/DNGiorgi, 1
IT-ASFi/DNManniDomenicoMaria, 54
IT-ASFi/DNBorgoSanSepolcroSanFrancesco, 4
IT-ASFi/DNLibreriaMagliabechiana, 171
IT-ASFi/DNScrittoioRegiePossessioni, 3
IT-ASFi/DNFirenzeMadonnaDeiRicci, 32
IT-ASFi/DNBaldovinettiAcquistoRegio, 127
IT-ASFi/DNArezzoDomenicani, 160
IT-ASFi/DNPistoiaVescovado, 364
IT-ASFi/DNBartolozzi, 4
IT-ASFi/DNSanGimignanoSMariaMaddalena, 35
IT-ASFi/DNPianCastagnaioSBartolomeo, 10
IT-ASFi/DNSanGimignanoSChiara, 33
IT-ASFi/DNMonticianoSSPietroPaolo, 437
IT-ASFi/DNUzzanoComune, 3
IT-ASFi/DNManni, 33
IT-ASFi/DNFirenzeSSalvi, 109
IT-ASFi/DNTribunaleDiMercanzia, 10
IT-ASFi/DNFiesoleSDomenico, 123
IT-ASFi/DNMariotti, 75
IT-ASFi/DNFirenzeSMariaAFonteviva, 39
IT-ASFi/DNTorrigianiDono, 19
IT-ASFi/DNMatteucciMontalvo, 1
IT-ASFi/DNMagistratoSupremo, 25
IT-ASFi/DNBargaComune, 6
IT-ASFi/DNPaciniPalagi, 64
IT-ASFi/DNTrenti, 1
IT-ASFi/DNVarrocchi, 9
IT-ASFi/DNFirenzeSMariaAnnunziata, 1
IT-ASFi/DNGuarnieri, 4
IT-ASFi/DNRiformagioni, 4350
IT-ASFi/DNMerlotti, 5
IT-ASFi/DNCastiglionFiorentinoSAgostino, 12
IT-ASFi/DNSienaTrafisse, 1
IT-ASFi/DNPratoSMariaDelleCarceri, 13
IT-ASFi/DNMigliorini, 1
IT-ASFi/DNTargioni, 17
IT-ASFi/DNPistoiaSLorenzo, 1478
IT-ASFi/DNStrozzianeUguccioni, 1095
IT-ASFi/DNMassaInValdinievoleComune, 172
IT-ASFi/DNFirenzeSFrancesco, 7
IT-ASFi/DNPistoiaPodesteria, 36
IT-ASFi/DNMaccioni, 1
IT-ASFi/DNPitti, 8
IT-ASFi/DNMontopoliComune, 11
IT-ASFi/DNFirenzeSOrsola, 22
IT-ASFi/DNCanigiani, 31
IT-ASFi/DNBarozzi, 1
IT-ASFi/DNBarbetti, 30
IT-ASFi/DNFirenzeSMariaSulPrato, 51
IT-ASFi/DNFirenzeSMarco, 200
IT-ASFi/DNTaruffi, 4
IT-ASFi/DNCortoneSMariaDellaMisericordia, 25
IT-ASFi/DNGangalandiSMariaDelleSelve, 60
IT-ASFi/DNAcquistoRegio, 18
IT-ASFi/DNAcquistoAdespota, 41
IT-ASFi/DNFiesoleSBartolomeo, 95
IT-ASFi/DNSilli, 8
IT-ASFi/DNLandini, 1
IT-ASFi/DNArteLana, 28
IT-ASFi/DNColleValDElsaComune, 189
IT-ASFi/DNMontughiSMarta, 16
IT-ASFi/DNCortonaSMicheleArcangelo, 36
IT-ASFi/DNFontana, 7
IT-ASFi/DNFirenzeSMariaNuova, 2798
IT-ASFi/DNCesi, 2
IT-ASFi/DNFirenzeInnocenti, 651
IT-ASFi/DNBarone, 2
IT-ASFi/DNFirenzeSSilvestro, 15
IT-ASFi/DNBonaini, 1
IT-ASFi/DNFirenzeSPaolino, 3
IT-ASFi/DNPasserini, 145
IT-ASFi/DNFirenzeSMariaDelBigallo, 269
IT-ASFi/DNPratoSNiccolo, 49
IT-ASFi/DNBargaPropositura, 9
IT-ASFi/DNSanMiniatoAlTedescoSmaAnnunziata, 3
IT-ASFi/DNPioIstitutoDeBardi, 30
IT-ASFi/DNFirenzeSClemente, 7
IT-ASFi/DNNidiaci, 7
IT-ASFi/DNSantaCroceValdarnoComune, 12
IT-ASFi/DNFranceschini, 21
IT-ASFi/DNColtibuonoSLorenzo, 904
IT-ASFi/DNBatelli, 1
IT-ASFi/DNArezzoComune, 4
IT-ASFi/DNFontani, 13
IT-ASFi/DNMorozziDiColle, 3
IT-ASFi/DNFirenzeSVerdiana, 3
IT-ASFi/DNFirenzeSNiccolo, 173
IT-ASFi/DNMontepulcianoSFrancesco, 1
IT-ASFi/DNFirenzeSMartino, 82
IT-ASFi/DNBoccara, 4
IT-ASFi/DNFirenzeSApollonia, 443
IT-ASFi/DNPistoiaSChiara, 40
IT-ASFi/DNArezzoSMariaNovella, 14
IT-ASFi/DNPistoiaComune, 7482
IT-ASFi/DNFirenzeSElisabettaConvertite, 1
IT-ASFi/DNBaccini, 1
IT-ASFi/DNPratoSBartolomeo, 25
IT-ASFi/DNAdespoteMencaraglia, 3
IT-ASFi/DNCaprilli, 1
IT-ASFi/DNStendardi, 25
IT-ASFi/DNFirenzeSCroce, 472
IT-ASFi/DNDellaStufa, 3
IT-ASFi/DNUfficialiDellAbbondanza, 1
IT-ASFi/DNFirenzeSLucia, 58
IT-ASFi/DNRinuccini, 134
IT-ASFi/DNProconsolo, 1
IT-ASFi/DNFirenzeSAmbrogio, 61
IT-ASFi/DNFirenzeSMariaDelCarmine, 473
IT-ASFi/DNTucciniDiSantaCroceValdarno, 1
IT-ASFi/DNPisaSBernardo, 1
IT-ASFi/DNFirenzeSFelicita, 185
IT-ASFi/DNSanGimignanoSFina, 323
IT-ASFi/DNMontepulcianoComune, 352
IT-ASFi/DNMedici, 11
IT-ASFi/DNAdespoteArchCentrale, 17
IT-ASFi/DNPavi, 1
IT-ASFi/DNBibliotecaNazionale, 12
IT-ASFi/DNStrozziDiMantova, 155
IT-ASFi/DNGiustini, 7
IT-ASFi/DNPieri, 1
IT-ASFi/DNFirenzeSGirolamo, 4
IT-ASFi/DNMenozzi, 98
IT-ASFi/DNCarlini, 3
IT-ASFi/DNPistoiaSMicheleNiccolao, 124
IT-ASFi/DNFirenzeSPierMartire, 11
IT-ASFi/DNFirenzeSSpirito, 1234
IT-ASFi/DNConsoliDelMare, 6
IT-ASFi/DNCigoliPropositura, 15
IT-ASFi/DNFucecchioComune, 164
IT-ASFi/DNFirenzeOrsanmichele, 20
IT-ASFi/DNBrini, 2
IT-ASFi/DNFossi, 3
IT-ASFi/DNPinelli, 68
IT-ASFi/DNFirenzeSDomenico, 211
IT-ASFi/DNRiformagioniParteGuelfa, 25
IT-ASFi/DNFirenzeSMiniato, 928
IT-ASFi/DNFirenzeOrdineGerosolimitano, 3
IT-ASFi/DNEmpoliSStefano, 83
IT-ASFi/DNBigazzi, 29
IT-ASFi/DNDocciaFrancescani, 4
IT-ASFi/DNFirenzeSMariaDelFioreLapo, 25
IT-ASFi/DNMonteSanSavinoSAgostino, 10
IT-ASFi/DNCampiglia, 1
IT-ASFi/DNFirenzeSMariaDelFiore, 60
IT-ASFi/DNGrossetiCancelleria, 7
IT-ASFi/DNVolterraSAndrea, 475
IT-ASFi/DNFucecchioSGiovanniBattista, 12
IT-ASFi/DNPistoiaSmaAnnunziata, 185
IT-ASFi/DNBuonamici, 5
IT-ASFi/DNPoggibonsiComune, 382
IT-ASFi/DNCortonaUnione, 113
IT-ASFi/DNPistoiaSDomenico, 79
IT-ASFi/DNGherardi, 19
IT-ASFi/DNCavaciocchi, 6
IT-ASFi/DNFirenzeSGiovanninoCavalieri, 16
IT-ASFi/DNCastiglionFiorentinoComune, 978
IT-ASFi/DNPistoiaSFrancesco, 47
IT-ASFi/DNCortonaSChiara, 66
IT-ASFi/DNPratoSVincenzo, 46
IT-ASFi/DNTorrigianiLegato, 12
IT-ASFi/DNFirenzeSmaAnnunziata, 1105
IT-ASFi/DNMontecatiniSMargherita, 85
IT-ASFi/DNArteMercatanti, 726
IT-ASFi/DNMontalcinoSAgostino, 182
IT-ASFi/DNRipoliSBartolomeo, 743
IT-ASFi/DNPratoMisericordiaDolce, 1084
IT-ASFi/DNPistoiaSMariaDegliAngioli, 54
IT-ASFi/DNUgolini, 10
IT-ASFi/DNPratelli, 1
IT-ASFi/DNMannaioni, 1
IT-ASFi/DNFirenzeSAntonioAbate, 29
IT-ASFi/DNSansedoni, 9
IT-ASFi/DNCastelFiorentinoSanIlario, 15
IT-ASFi/DNFirenzeSMonaca, 2
IT-ASFi/DNPesciaSMichele, 18
IT-ASFi/DNGalluzzoSLorenzo, 770
IT-ASFi/DNMartiniTaviani, 2
IT-ASFi/DNVolterraComune, 2268
IT-ASFi/DNRipomaranceComune, 1
IT-ASFi/DNCecchini, 1
IT-ASFi/DNFirenzeSMichele, 106
IT-ASFi/DNGrisoliniMalatesti, 2
IT-ASFi/DNRimbotti, 1
IT-ASFi/DNFirenzeSPaolo, 18
IT-ASFi/DNFirenzeSDonato, 288
IT-ASFi/DNMancini, 1
IT-ASFi/DNPratoCeppi, 240
IT-ASFi/DNFirenzeSMariaReginaCoeli, 23
IT-ASFi/DNFirenzeSGiovannino, 34
IT-ASFi/DNMalaspina, 5
IT-ASFi/DNMesseri, 4
IT-ASFi/DNFirenzeSCaterinaDaSiena, 9
IT-ASFi/DNPolverini, 327
IT-ASFi/DNPistoiaSBenedetto, 995
IT-ASFi/DNEmpoliSAndrea, 9
IT-ASFi/DNFirenzeSIacopo, 2
IT-ASFi/DNSanMiniatoAlTedescoComune, 161
IT-ASFi/DNChecchi, 2
IT-ASFi/DNVallombrosaSMariaDAcquabella, 1526
IT-ASFi/DNDellAntella, 4
IT-ASFi/DNScarperiaSMariaInPiazza, 159
IT-ASFi/DNAdespoteBussotti, 1
IT-ASFi/DNSaltini, 1
IT-ASFi/DNMoriUbaldini, 7
IT-ASFi/DNFirenzeSTrinitaVallombrosani, 114
IT-ASFi/DNMontepulcianoSAgnese, 95
IT-ASFi/DNMiccinesi, 97
IT-ASFi/DNGondi, 27
IT-ASFi/DNPatrimonioEcclesiastico, 315
IT-ASFi/DNFiglineComune, 14
IT-ASFi/DNFranchi, 1
IT-ASFi/DNFivizzanoSGiovanniBattista, 26
IT-ASFi/DNFirenzeSGiuliano, 15
IT-ASFi/DNLucoDiMugelloSPietro, 650
IT-ASFi/DNBorgoSanSepolcro, 34
IT-ASFi/DNMariani, 15
IT-ASFi/DNFirenzeSMariaDegliAngioli, 979
IT-ASFi/DNAdespoteGori, 5
IT-ASFi/DNArezzoOlivetani, 999
IT-ASFi/DNFirenzeGiovanniBattista, 1580
IT-ASFi/DNGuiducciMedici, 11
IT-ASFi/DNFirenzeSMariaNovella, 1434
IT-ASFi/DNFirenzeSVincenzo, 2
IT-ASFi/DNPoggibonsiSLorenzo, 12
IT-ASFi/DNArcetri, 150
IT-ASFi/DNGalluzzoSCaterina, 84
IT-ASFi/DNBalducciPegolotti, 66
IT-ASFi/DNFollini, 2
IT-ASFi/DNScrofianoSNiccolo, 23
IT-ASFi/DNSoderini, 50
IT-ASFi/DNPistoiaSBartolomeo, 1053
IT-ASFi/DNFabbrini, 2
IT-ASFi/DNArchivioGeneraleContratti, 3721
IT-ASFi/DNMonteComune, 2726
IT-ASFi/DNCameraFiscale, 634
IT-ASFi/DNPontanari, 1
IT-ASFi/DNLariSSMartinoBona, 4
IT-ASFi/DNStrozzianeGalletti, 40
IT-ASFi/DNMerlini, 21
IT-ASFi/DNSalari, 9
IT-ASFi/DNPistoiaSLucia, 2
IT-ASFi/DNCioni, 4
IT-ASFi/DNFalleri, 1
IT-ASFi/DNBaroni, 3
IT-ASFi/DNFirenzeSCaterina, 350
IT-ASFi/DNUrbinoPesaro, 63
IT-ASFi/DNPratovecchioSGiovanniEvangelista, 238
IT-ASFi/DNSanMiniatoAlTedescoSAgostino, 29
IT-ASFi/DNRiformagioniMalaspina, 37
IT-ASFi/DNPistoiaSMercuriale, 242
IT-ASFi/DNBernardi, 2
IT-ASFi/DNPesciaComune, 8
IT-ASFi/DNPorticoSMariaDellaDisciplina, 56
IT-ASFi/DNNerucci, 2
IT-ASFi/DNPistoiaSGregorio, 479
IT-ASFi/DNCortonaComune, 1
IT-ASFi/DNSanGimignanoSmaAnnunziata, 92
IT-ASFi/DNGuastallo, 2
IT-ASFi/DNStrozzianeMariottini, 1
IT-ASFi/DNCoppi, 33
IT-ASFi/DNRiformagioniAttiPubblici, 1671
IT-ASFi/DNArezzoMisericordia, 344
IT-ASFi/DNBaldanzi, 3
IT-ASFi/DNSanMiniatoAlTedescoSPaolo, 6
IT-ASFi/DNNobili, 16
IT-ASFi/DNPolitiFlamini, 2
IT-ASFi/DNPratoComune, 94
IT-ASFi/DNBagni, 2
IT-ASFi/DNAccademiaColombaria, 6
IT-ASFi/DNFirenzeSMariaDellaPieta, 7
DE-StaALohr, 0
DE-StaALohr/Urkunden, 194
AT-StiAW, 0
AT-StiAW/Urkunden, 2060
DE-StaASpeyer, 0
DE-StaASpeyer/1U, 1089
DE-StaASpeyer/1Uchron, 1128
DE-StaASpeyer/121U, 270
UrkCistercienserHoh, 245
AT-DASP, 0
AT-DASP/Urkunden, 1478
NienBued, 293
MonBamberg, 317
CZ-SOAT, 0
CZ-SOAT/CizyRody, 551
CZ-SOAT/CizyStatky, 825
CZ-SOAT/PremonstratiZeliv, 135
CZ-SOAT/Historica, 346
CZ-SOAT/VelkostatekSedlec, 437
CZ-SOAT/VelkostatekOrlik, 136
IT-ASC, 0
IT-ASC/Boll, 486
AT-StaAZ, 0
AT-StaAZ/Urkunden, 103
AT-StiAK, 0
AT-StiAK/KlosterneuburgCanReg, 2350
AT-StiAK/StDorotheaCanReg, 905
Westerburg, 77
AT-StiAL, 0
AT-StiAL/LambachOSB, 3989
HU-MNL-DLHLYL, 0
HU-MNL-DLHLYL/DEPUQ423, 1
Koenigshofen, 54
SaintBertin, 182
IT-SNS, 0
IT-SNS/Salviati, 11
DE-ASP, 0
DE-ASP/Urkunden, 682
RO-ANR, 0
RO-ANR/ColPec, 317
RO-ANR/ColectiaSigiliiHarghita, 225
BistumBreslau, 84
Siebenbuergen, 203
HU-PLE, 0
HU-PLE/EsztergomPL, 3
MonBoicorumII, 212
IT-APC, 0
IT-APC/APC, 78
bcce4758-4dd0-4720-90ef-b989f2157739, 1
AT-StiAV, 0
AT-StiAV/VorauCanReg, 696
AT-StaAR, 0
AT-StaAR/UrkDominikanerkloster, 100
AT-StaAR/Urkundenreihe, 381
AT-StaAR/UrkStadtpfarre, 13
CodexBrandenburgensisI, 230
UrkEnns, 221
SI-GMK, 0
SI-GMK/GMK, 68
DE-HStASt, 0
DE-HStASt/HStASt_A502, 1575
GrafenVonAndechs, 14
DE-LMUHGW, 0
DE-LMUHGW/Urkunden, 227
AT-StiAM, 0
AT-StiAM/MelkOSB, 2597
UrkundenSchlesienOberlausitz, 157
HU-MNL-DLVEPO, 0
HU-MNL-DLVEPO/VETUBVPIQ281, 753
HU-MNL-DLVEPO/THALAEHQ281, 13
HU-MNL-DLVEPO/AJAUBVPIQ281, 80
AT-StiASch, 0
AT-StiASch/SchlierbachOCist, 1561
DE-StadtAFulda, 0
DE-StadtAFulda/urkunden, 575
CZ-ANM, 0
CZ-ANM/Pacak, 1
CZ-ANM/Milner, 2
CZ-ANM/Jirus, 8
CZ-ANM/Latomica, 2
CZ-ANM/Dusek, 8
CZ-ANM/Pollitzer, 2
CZ-ANM/Firbas, 5
CZ-ANM/Schaniel, 2
CZ-ANM/CH, 2
CZ-ANM/Wrany, 3
CZ-ANM/Okenfus, 1
CZ-ANM/Hlavka, 3
CZ-ANM/Bischoff, 1
CZ-ANM/Hacha, 1
CZ-ANM/Kubelikova, 3
CZ-ANM/Pavlovsky, 1
CZ-ANM/Derer, 1
CZ-ANM/Benes, 2
CZ-ANM/Nehyba, 1
CZ-ANM/BorekDohalsky, 2
CZ-ANM/Sary, 1
CZ-ANM/Braf, 1
CZ-ANM/Cerny, 1
CZ-ANM/Presl, 1
CZ-ANM/Wawra, 1
CZ-ANM/Kaska, 5
CZ-ANM/Herzogenberg, 16
CZ-ANM/Podlaha, 3
CZ-APH, 0
CZ-APH/AMK, 802
AT-DAGS, 0
AT-DAGS/Pfarrurkunden, 608
AT-DAGS/Bistumsurkunden, 275
069622fc-5d55-4a51-8dd5-f23f30d8bf2f, 22
AT-MAWeyer, 0
AT-MAWeyer/Urkunden, 33
AT-StiAStP, 0
AT-StiAStP/BlUK, 268
AT-StiAStP/BlUKVariaEcclesiastica, 33
AT-StiAStP/BlUKHirsau, 6
AT-StiAStP/BlUKBistumChur, 2
AT-StiAStP/BlUKReichenbach, 70
AT-StiAStP/BlUKWilhelmiterOrden, 31
AT-StiAStP/UK, 1943
AT-StiAStP/BlUKBebenhausen, 10
AT-StiAStP/BlUKMaulbronn, 14
AT-StiAStP/BlUKBlaubeuren, 19
AT-StiAStP/EUK, 176
AT-StiAStP/BlUKLorch, 7
SK-SNA, 0
SK-SNA/4181-RodKubinsky-vlasskaVetva, 7
SK-SNA/4167-RodBrunsvik-ChotekZDolnejKrupej, 2
SK-SNA/4172-RodEsterhazi-CekliskaVetva, 43
SK-SNA/4174-RodJustZNecpal, 4
SK-SNA/4220-Rod-Zici-z-Voderad, 55
SK-SNA/4201-RodRakovskyZRakovaALiptovskejStiavnice, 282
SK-SNA/4169-RodDulaiZoSokoloviec, 2
SK-SNA/4161-RodAmade-UchtritzZGabcikova, 102
SK-SNA/RZZ, 9
SK-SNA/4191-RodNemesZLiptovskychBeharoviec, 3
SK-SNA/ZSL, 21
SK-SNA/4165-BoryZBorov, 12
SK-SNA/4153-KonventPremonstratovVJasove, 531
SK-SNA/LErd, 265
SK-SNA/4186-RodKubinsky-hodejovsko-hnustanskaVetva, 67
SK-SNA/4183-RodKubini-vlasko-dechtarskaVetva, 34
SK-SNA/4156-SukromnyArchivBratislavskejKapituly, 1084
SK-SNA/4209-Rod-Roskovani-z-Roskovian, 12
SK-SNA/4193-RodOrdodyZBohatej, 5
SK-SNA/4179-RodKostolani-LiniaMaslak, 15
SK-SNA/4213-Rod-Velic-Salai-z-Laclavej-a-Slovenskeho-Pravna, 18
SK-SNA/4168-RodDubnicky-MarcibaniZKocoviec, 1
SK-SNA/4175-RodKostolani-spolocnyArchivLiniiKolomanaALadislavaKostolaniho-Brausa, 57
SK-SNA/4177-RodKostolani-vetvaLadislavaKostolaniho, 3
SK-SNA/4190-RodNatafalusiZNacinejVsi, 224
SK-SNA/4187-RodKubinsky-bobrovnickaVetva, 10
SK-SNA/4166-RodBouc-CeperZDoliny, 20
SK-SNA/4215-Rod-Zai-z-Bucian-Elench2, 17
SK-SNA/4185-RodKubinsky-demaenovskaVetva, 15
SK-SNA/MRS, 14
SK-SNA/4155-KonventPremonstratovVoVelKomVaradine, 17
SK-SNA/4223-Rod-Habsburg-riaditelstvo-cisarskych-sukromnych-majetkov-vo-Viedni-Czoboriana, 51
SK-SNA/4173-RodEsterhazi-CesneckaLinia, 551
SK-SNA/3900-HodnoverneMiestoBratislavskaKapitula, 2490
SK-SNA/4162-RodAponiZOponicAJablonice, 25
SK-SNA/4176-RodKostolani-vetvaZigmundaKostolaniho-Brausa, 77
DE-StaAWo, 0
DE-StaAWo/Abt1AI, 1133
DE-StaAWo/Abt1AII, 132
DE-StaAWo/Abt49U, 59
KleineSchriften, 14
StaatsrechtSchleswigHolstein, 51
IlluminierteUrkundenWappenbriefe, 146
MerkwuerdigeUrkundenII, 219
SMG, 92
DE-UBHD, 0
DE-UBHD/HeidUrk, 7
DE-UBHD/UrkBarth, 64
DE-UBHD/UrkBatt, 8
DE-UBHD/UrkLehmann, 565
DE-AHGM, 0
DE-AHGM/Urkunden, 140
AT-StaATr, 0
AT-StaATr/Urkunden, 85
CZ-KAVB, 0
CZ-KAVB/VYBRO, 519
CSGVIII, 571
AggOCart, 519
KoenigWenceslaus, 32
GeschichteTirol, 119
Wertheim, 180
MonumentaEberacensia, 12
ConstantinBrancovan, 163
UrkundenBehrII, 276
BISANU, 17
BaumOCist, 343
HU-BFL, 0
HU-BFL/oklevelek, 20
DE-StABa, 0
DE-StABa/Langheim, 1992
HausPfalz, 50
AT-StiAFiecht, 0
AT-StiAFiecht/Urkunden, 1134
HausesSchoenburg, 63
DE-StaAWuerzburg, 0
DE-StaAWuerzburg/WuerzburgerRatsurkunden, 426
DE-StaAWuerzburg/Heidingsfeld, 115
DE-StaAWuerzburg/Buergerspital, 589
RhenoMosellanusI, 359
FuerstenthumCoburg, 22
DE-ABP, 0
DE-ABP/KapellA_Altoetting, 447
DE-ABP/Urkunden, 769
HU-MNL-DLERKL, 0
HU-MNL-DLERKL/ACTGQ337, 1
UrkBreslau, 309
KlosterStBernhard, 136
IlluminierteUrkundenIberica, 45
PhilippDerGrossmuethige, 69
HU-MNL-DLREGL, 0
HU-MNL-DLREGL/ARCRKAQ308, 154
HU-MNL-DLREGL/ARCPIAQ9, 22
SMG1200-1250, 109
CSGXI, 570
CodexDiplomaticusNeerlandicusI, 74
HU-PBFL, 0
HU-PBFL/BakonybelOSB, 6
HU-PBFL/PannHOSB, 1480
HU-PBFL/Elen, 23
HU-PBFL/PannHActa, 78
HU-PBFL/TihanyOSB, 53
MonBoicorumI, 267
WirtembergischesUrkundenbuch, 194
CZ-UKP, 0
CZ-UKP/AUKP, 197
DE-StAN, 0
DE-StAN/hlgeistspital, 830
AT-KLA, 0
AT-KLA/KLA-744, 2
AT-KLA/KLA-264, 63
AT-KLA/KLA-094, 5
AT-KLA/KLA-457, 229
AT-KLA/KLA-808, 21
AT-KLA/KLA-092, 6
AT-KLA/AUR, 6206
AT-KLA/KLA-213, 122
AT-KLA/KLA-019, 5
AT-KLA/KLA-442, 4
AT-KLA/KLA-871, 519
AT-KLA/KLA-443, 25
AT-KLA/KLA-027, 453
AT-KLA/KLA-649, 12
AT-KLA/KLA-029, 7
AT-KLA/KLA-223, 4
AT-KLA/KLA-284, 372
AT-KLA/KLA-30_2, 29
AT-KLA/KLA-106, 2
AT-KLA/KLA-107, 35
AT-KLA/KLA-100, 6
AT-KLA/KLA-030_2, 163
AT-KLA/KLA-110, 1
AT-KLA/KLA-111, 1
AT-KLA/KLA-099, 35
AT-KLA/KLA-090, 27
AT-KLA/KLA-097, 36
AT-KLA/KLA-096, 17
AT-KLA/KLA-098, 8
AT-KLA/KLA-266, 23
AT-KLA/KLA-244, 3
AT-KLA/KLA-025, 80
AT-KLA/KLA-022, 155
AT-KLA/KLA-688, 297
AT-KLA/KLA-227, 49
AT-KLA/KLA-308, 4
AT-KLA/KLA-105, 18
AT-KLA/KLA-102, 48
AT-KLA/KLA-103, 2
AT-KLA/KLA-104, 30
HU-MNL-DLINTI, 0
HU-MNL-DLINTI/VARKQ15, 6
HU-MNL-DLINTI/VAGKQ350, 22
HU-MNL-DLINTI/SZAMQ13, 26
HU-MNL-DLINTI/FERRQ5, 1
HU-MNL-DLINTI/SEBVQ261, 163
HU-MNL-DLINTI/SZEMQ345, 36
HU-MNL-DLINTI/GONVQ367, 3
HU-MNL-DLINTI/BARKQ1, 27
HU-MNL-DLINTI/KORVQ375, 3
HU-MNL-DLINTI/SZAVQ14, 21
HU-MNL-DLINTI/SELFOQ7, 4
HU-MNL-DLINTI/SZEKKQ398, 1007
HU-MNL-DLINTI/BUDKQ397, 1016
HU-MNL-DLINTI/SZEVQ394, 2
CSGVI, 769
HU-MNL-DLMAKL, 0
HU-MNL-DLMAKL/PRICQ430, 1
HU-MNL-DLMAKL/LITAQ351, 1
HU-MNL-DLMAKL/LIBRQ335, 2
HU-MNL-DLMAKL/ACTPQ7, 24
GuelchBergischen, 76
SaganLiegnitz, 88
MonBoicorumVI, 719
IlluminierteUrkundenBischofsammelablaesse, 763
SchiffOberrhein, 134
AT-StiASP, 0
AT-StiASP/Urkunden, 5351
CH-StaASG, 0
CH-StaASG/Urkunden, 2492
AT-NOeLA, 0
AT-NOeLA/HA_Seefeld-HardeggerUrk, 2357
AT-NOeLA/HA_Stettl, 103
AT-NOeLA/StA_Urk, 3646
AT-NOeLA/A_Glogg, 207
UrkVonZollernHohenbergI, 737
IlluminierteUrkunden, 2318
MoldauBukovina, 274
SchneiderTest, 519
SI-NSAL, 0
SI-NSAL/NSAL, 548
UrkBremen, 10
AT-OOeLA, 0
AT-OOeLA/GarstenOSB, 652
AT-OOeLA/MondseeOSB, 330
AT-OOeLA/TraunkirchenOSB, 27
AT-OOeLA/LinzDA, 194
AT-OOeLA/GleinkOSB, 338
AT-OOeLA/SubenCanReg, 22
AT-OOeLA/Enns, 458
AT-OOeLA/SpitalamPyhrnCan, 427
MonBoicorumIII, 200
CodexDiplomaticusNeerlandicusII, 90
StadtLeipzig, 562
HochstiftChur, 33
IlluminierteUrkundenLombardeiit, 300
FreisBm, 749
AVSPS, 131
AT-StaAWei, 0
AT-StaAWei/Urkunden, 248
UrkundenSammlungDE, 127
UrkundenDennhausen, 494
AT-StaLois, 0
AT-StaLois/A, 266
AT-StaLois/B, 27
AT-SchlAWei, 0
AT-SchlAWei/Urkunden, 122
LandfriedenDeutschland, 5
SerbMedDocsInVenice, 26
UrkundenLuebeckII, 524
SaeuOCist, 444
UrkundenbuchIB, 588
HU-MNL-DLCSLP, 0
HU-MNL-DLCSLP/ANYCSQ19, 35
HU-MNL-DLCSLP/TARCSQ189, 8
HU-MNL-DLCSLP/UJHCSQ200, 515
HU-MNL-DLCSLP/LOSCSQ290, 123
HU-MNL-DLCSLP/KOLCSQ110, 39
HU-MNL-DLCSLP/TARCSQ187, 4
HU-MNL-DLCSLP/BERCSBERQ38, 551
HU-MNL-DLCSLP/SIBCSQ167, 245
HU-MNL-DLCSLP/MELCSQ131, 190
HU-MNL-DLCSLP/BARCSQ448, 6
HU-MNL-DLCSLP/SALCSQ164, 53
HU-MNL-DLCSLP/ESTCSQ67, 4061
HU-MNL-DLCSLP/BATCSACTQ383, 3275
HU-MNL-DLCSLP/SOOCSQ170, 1083
HU-MNL-DLCSLP/POTCSQ416, 2
HU-MNL-DLCSLP/SZTCSQ181, 1275
HU-MNL-DLCSLP/SANCSQ165, 421
HU-MNL-DLCSLP/KISCSQ105, 1408
HU-MNL-DLCSLP/TERCSQ193, 7
HU-MNL-DLCSLP/BALCSQ21, 7
HU-MNL-DLCSLP/FESCSQ73, 3794
HU-MNL-DLCSLP/RAJCSQ155, 152
HU-MNL-DLCSLP/MAGCSQ121, 28
HU-MNL-DLCSLP/FESCSQ74, 428
HU-MNL-DLCSLP/ESTCSZOLQ71, 48
HU-MNL-DLCSLP/TARCSQ188, 10
HU-MNL-DLCSLP/HADCSQ298, 2
HU-MNL-DLCSLP/NOPCSQ141, 7
HU-MNL-DLCSLP/MANCSQ123, 147
HU-MNL-DLCSLP/TOROCSVARQ197, 108
HU-MNL-DLCSLP/ELECSQ450, 5
HU-MNL-DLCSLP/PETCSQ149, 54
HU-MNL-DLCSLP/BATLJNOQ31, 2112
HU-MNL-DLCSLP/VLACSQ437, 1
HU-MNL-DLCSLP/BOGCSQ46, 84
HU-MNL-DLCSLP/BETCSBETQ40, 555
HU-MNL-DLCSLP/SZOCSQ180, 121
HU-MNL-DLCSLP/FEJCSQ72, 105
HU-MNL-DLCSLP/TELCSGYOQ190, 267
HU-MNL-DLCSLP/FORGACSGIMQ77, 89
HU-MNL-DLCSLP/TEOCSQ195, 243
HU-MNL-DLCSLP/ZOMCSQ207, 1
HU-MNL-DLCSLP/TELCSMARQ191, 1282
HU-MNL-DLCSLP/DORCSQ65, 196
HU-MNL-DLCSLP/HIECSQ87, 11
HU-MNL-DLCSLP/BERCSBARQ37, 8
HU-MNL-DLCSLP/LIPCSQ115, 47
HU-MNL-DLCSLP/PODCSQ151, 17
HU-MNL-DLCSLP/PERCSQ148, 1047
HU-MNL-DLCSLP/CSOCSDEVQ58, 148
HU-MNL-DLCSLP/HORCSNAGQ403, 1
HU-MNL-DLCSLP/BEKCSQ33, 556
HU-MNL-DLCSLP/KENCSQ102, 347
HU-MNL-DLCSLP/KLOCSQ285, 67
HU-MNL-DLCSLP/KAPCSQ95, 800
HU-MNL-DLCSLP/BATCSSENQ385, 145
HU-MNL-DLCSLP/BEZCSKAMQ41, 19
HU-MNL-DLCSLP/GYUCSQ85, 18
HU-MNL-DLCSLP/WESCSQ288, 177
HU-MNL-DLCSLP/ZOMCSQ208, 6
HU-MNL-DLCSLP/VALCSQ202, 8
HU-MNL-DLCSLP/BEZCSMENQ42, 80
HU-MNL-DLCSLP/MAJCSQ122, 366
HU-MNL-DLCSLP/KEGCSQ101, 175
HU-MNL-DLCSLP/UCHCSQ17, 903
HU-MNL-DLCSLP/ANTCSQ18, 1
HU-MNL-DLCSLP/KAPCSQ94, 33
HU-MNL-DLCSLP/BUOCSQ216, 61
HU-MNL-DLCSLP/LANCSQ114, 59
HU-MNL-DLCSLP/BICCSQ43, 28
HU-MNL-DLCSLP/ESTCSTATQ70, 70
HU-MNL-DLCSLP/ALMCSQ16, 7
HU-MNL-DLCSLP/HORCSZALQ88, 29
HU-MNL-DLCSLP/CSECSQ55, 4
HU-MNL-DLCSLP/WATCSQ400, 56
HU-MNL-DLCSLP/LUKCSKOVQ119, 52
HU-MNL-DLCSLP/BANCSQ24, 44
HU-MNL-DLCSLP/KUBCSQ112, 803
HU-MNL-DLCSLP/GOSCSGOSQ427, 18
HU-MNL-DLCSLP/MARCSQ405, 1
HU-MNL-DLCSLP/ESTCSPAPQ69, 13
HU-MNL-DLCSLP/MADCSQ120, 137
HU-MNL-DLCSLP/BRUCSQ49, 14
HU-MNL-DLCSLP/JANCSQ287, 44
HU-MNL-DLCSLP/THACSQ194, 412
HU-MNL-DLCSLP/ESTCSGESQ68, 33
HU-MNL-DLCSLP/TORCSQ355, 3
HU-MNL-DLCSLP/DARCSQ402, 12
HU-MNL-DLCSLP/UJHCSQ199, 2
HU-MNL-DLCSLP/CSAKCSILLQ51, 150
HU-MNL-DLCSLP/BANCSQ25, 96
HU-MNL-DLCSLP/CSOCSRAGQ57, 16
HU-MNL-DLCSLP/OCSCSQ252, 337
HU-MNL-DLCSLP/GAACSQ79, 22
HU-MNL-DLCSLP/SZIRCSGROQ179, 6
HU-MNL-DLCSLP/DEZCSQ294, 1
HU-MNL-DLCSLP/SZACSQ171, 24
HU-MNL-DLCSLP/UJFCSQ295, 10
HU-MNL-DLCSLP/BARCSQ28, 77
HU-MNL-DLCSLP/BARCSQ26, 121
HU-MNL-DLCSLP/BATCSMISQ358, 734
HU-MNL-DLCSLP/PATCSQ146, 279
HU-MNL-DLCSLP/KARCSQ408, 140
HU-MNL-DLCSLP/MARCSQ124, 35
HU-MNL-DLCSLP/FORCSQ78, 7
HU-MNL-DLCSLP/KARCSQ96, 87
HU-MNL-DLCSLP/FIACSQ286, 4
HU-MNL-DLCSLP/GORCSTOPQ84, 137
HU-MNL-DLCSLP/KARCSQ98, 522
HU-MNL-DLCSLP/TISCSQ273, 39
HU-MNL-DLCSLP/GHYCSQ81, 181
HU-MNL-DLCSLP/MOCCSQ133, 25
HU-MNL-DLCSLP/KEGCSEGRQ381, 77
HU-MNL-DLCSLP/BARCSQ29, 40
HU-MNL-DLCSLP/RADCSSAJQ154, 1342
HU-MNL-DLCSLP/KARCSQ99, 187
HU-MNL-DLCSLP/TALCSQ186, 345
HU-MNL-DLCSLP/KARCSQ97, 1200
HU-MNL-DLCSLP/MARCSQ125, 939
HU-MNL-DLCSLP/SZECSQ297, 1
HU-MNL-DLCSLP/ZICCSZSEQ206, 8538
HU-MNL-DLCSLP/NADACSNADQ136, 100
HU-MNL-DLCSLP/ODECSQ142, 25
HU-MNL-DLCSLP/REVCSQ158, 34
HU-MNL-DLCSLP/DAPCSQ61, 2
HU-MNL-DLCSLP/BATCSMEMQ428, 152
HU-MNL-DLCSLP/KISCSQ106, 506
HU-MNL-DLCSLP/KALCSQ93, 7137
HU-MNL-DLCSLP/BALCSQ23, 140
HU-MNL-DLCSLP/URACSQ201, 12
HU-MNL-DLCSLP/ORCCSQ144, 193
HU-MNL-DLCSLP/HANCSQ86, 319
HU-MNL-DLCSLP/VIDCSQ204, 51
HU-MNL-DLCSLP/BLACSQ45, 218
HU-MNL-DLCSLP/CSAKYCSKASQ52, 123
HU-MNL-DLCSLP/BATCSQ392, 5
HU-MNL-DLCSLP/IRSCSQ235, 34
HU-MNL-DLCSLP/REVCSQ159, 23
HU-MNL-DLCSLP/MAKCSQ300, 1
HU-MNL-DLCSLP/ZATCSQ205, 25
HU-MNL-DLCSLP/LONCSQ116, 547
HU-MNL-DLCSLP/DOBCSQ64, 17
HU-MNL-DLCSLP/DESCSGROQ62, 364
HU-MNL-DLCSLP/MOTCSQ135, 273
HU-MNL-DLCSLP/MARCSQ306, 5
HU-MNL-DLCSLP/BENCSQ35, 191
HU-MNL-DLCSLP/BALCSQ22, 588
HU-MNL-DLCSLP/HATCSQ291, 2
HU-MNL-DLCSLP/BERCSKAKQ39, 151
HU-MNL-DLCSLP/SZICSQ178, 204
HU-MNL-DLCSLP/SIMCSQ168, 384
HU-MNL-DLCSLP/SEMCSQ166, 653
HU-MNL-DLCSLP/NAGCSQ139, 64
HU-MNL-DLCSLP/FORGCSCSAQ76, 5
HU-MNL-DLCSLP/KHUCSQ104, 57
HU-MNL-DLCSLP/SZICSQ176, 69
HU-MNL-DLCSLP/CSAKYCSKLUQ53, 20
HU-MNL-DLCSLP/KHUCSQ103, 408
HU-MNL-DLCSLP/BUGCSQ50, 30
HU-MNL-DLCSLP/KARCSQ100, 2
HU-MNL-DLCSLP/ESTCSQ382, 17
HU-MNL-DLCSLP/BERCSQ36, 61
HU-MNL-DLCSLP/ILOCSQ293, 38
HU-MNL-DLCSLP/VECCSQ399, 3
HU-MNL-DLCSLP/PALCSQ376, 36
HU-MNL-DLCSLP/ATZCSQ20, 3
HU-MNL-DLCSLP/SZICSQ177, 16
HU-MNL-DLCSLP/BENCSQ302, 39
HU-MNL-DLCSLP/KVACSQ113, 27
HU-MNL-DLCSLP/BECCSQ32, 394
HU-MNL-DLCSLP/MOKCSQ134, 65
HU-MNL-DLCSLP/NENCSQ117, 31
HU-MNL-DLCSLP/FARCSINAQ299, 49
HU-MNL-DLCSLP/SZILCSAKOQ396, 25
HU-MNL-DLCSLP/BONCSQ47, 6
HU-MNL-DLCSLP/BASCSQ30, 121
HU-MNL-DLCSLP/MATCSQ129, 36
HU-MNL-DLCSLP/SZUCSQ183, 216
HU-MNL-DLCSLP/SZUCSQ184, 30
HU-MNL-DLCSLP/JEKCSQ90, 43
HU-MNL-DLCSLP/GAMCSQ80, 12
HU-MNL-DLCSLP/SZECSQ174, 181
HU-MNL-DLCSLP/SZECSQ173, 31
HU-MNL-DLCSLP/RHECSQ161, 215
HU-MNL-DLCSLP/RAKCSQ156, 761
HU-MNL-DLCSLP/RADCSRADQ153, 115
HU-MNL-DLCSLP/KOSCSQ109, 18
HU-MNL-DLCSLP/NAGCSALSQ137, 15
HU-MNL-DLCSLP/CSAKYCSKOZQ54, 255
HU-MNL-DLCSLP/SZECSQ175, 15
HU-MNL-DLCSLP/MEDCSQ130, 192
HU-MNL-DLCSLP/SZUCSQ185, 172
HU-MNL-DLCSLP/MERCSKAPQ132, 152
HU-MNL-DLCSLP/SZUCSQ182, 91
HU-MNL-DLCSLP/KERCSABAQ404, 1
HU-MNL-DLCSLP/BARCSQ380, 7
HU-MNL-DLCSLP/CSICSQ56, 1247
HU-MNL-DLCSLP/KOSCSQ108, 63
HU-MNL-DLCSLP/TIHCSQ196, 134
HU-MNL-DLCSLP/DESCSMARQ63, 676
HU-MNL-DLCSLP/RAKCSQ157, 56
HU-MNL-DLCSLP/DANCSQ60, 10
HU-MNL-DLCSLP/PECCSQ147, 103
HU-MNL-DLCSLP/GORCSGORQ83, 389
HU-MNL-DLCSLP/MARCSQ127, 442
HU-MNL-DLCSLP/BIRCSGELQ44, 4
HU-MNL-DLCSLP/OLGCSQ143, 146
HU-MNL-DLCSLP/FORCSQ75, 2300
HU-MNL-DLCSLP/RHACSQ160, 6
HU-MNL-DLCSLP/GOSCSHEVQ82, 16
HU-MNL-DLCSLP/BATCSMAIQ384, 423
HU-MNL-DLCSLP/NEDCSQ140, 78
HU-MNL-DLCSLP/BATCSQ386, 337
HU-MNL-DLCSLP/SZACSQ172, 270
HU-MNL-DLCSLP/ERDCSQ66, 48
HU-MNL-DLCSLP/SOMCSQ169, 137
HU-MNL-DLCSLP/PUKCSQ407, 93
HU-MNL-DLCSLP/NAGCSHIDQ138, 18
HU-MNL-DLCSLP/PETCSQ150, 466
HU-MNL-DLCSLP/BATCSQ388, 933
HU-MNL-DLCSLP/KOLCSQ107, 64
HU-MNL-DLCSLP/KRUCSQ111, 29
HU-MNL-DLCSLP/TOTCSQ198, 2
HU-MNL-DLCSLP/MARCSQ128, 285
HU-MNL-DLCSLP/BATCSHEIQ359, 446
HU-MNL-DLCSLP/JUSCSQ92, 811
HU-MNL-DLCSLP/BRECSQ48, 57
HU-MNL-DLCSLP/IBRCSQ89, 552
HU-MNL-DLCSLP/MARCSQ126, 48
HU-MNL-DLCSLP/DANCSQ59, 201
HU-MNL-DLCSLP/RADCSQ152, 51
HU-MNL-DLCSLP/JESCSQ91, 308
HU-MNL-DLCSLP/ESTCSQ422, 6
HU-MNL-DLCSLP/RUDCSQ163, 30
HU-MNL-DLCSLP/OSTCSQ145, 495
HU-MNL-DLCSLP/BATCSQ389, 112
HU-MNL-DLCSLP/BELCSQ296, 9
HU-MNL-DLCSLP/BATCSQ387, 140
HU-MNL-DLCSLP/TELCSNAGQ192, 38
HR-DAPA, 0
HR-DAPA/797, 173
Corbeiensia, 455
AT-StaABdW, 0
AT-StaABdW/Urkunden, 150
SchweizerischesUrkundenregister, 1654
ArdCan, 139
AT-AES, 0
AT-AES/Urkunden, 3115
IT-ASPz, 0
IT-ASPz/SAMS_PE, 60
IT-ASPz/APMM_PMIS, 46
IT-ASPz/DMRV_PCV, 93
IT-ASPz/APMM_PSFS, 39
IT-ASPz/SMLA_PE, 43
IT-ASPz/APMM_PSNV, 154
IT-ASPz/SMAB_PE, 27
IT-ASPz/SMNA_PE, 52
IT-ASPz/SLAA_PE, 12
IT-ASPz/APMM_PSLP, 3
IT-ASPz/APMM_PSFB, 126
IT-ASPz/SNCI_PE, 60
IT-ASPz/APMM_PAVI, 27
IT-ASPz/APMM_PSMF, 9
IT-ASPz/APMM_PSMS, 127
IT-ASPz/SMMP_PE, 60
IT-ASPz/APMM_PMAT, 58
Harghita, 32
CodexDiplomaticusHungariae, 249
SI-ARS, 0
SI-ARS/ARS, 10
SI-ARS/LJSJ, 23
MK-DARM, 0
MK-DARM/AZ-XIV, 1
3d365866-188c-4a12-a14a-057ad8b7b7ce, 2
CSGX, 485
CZ-NA, 0
CZ-NA/CDK, 29
CZ-NA/AZK&7C;Koruna, 353
CZ-NA/AZK&7C;Dodatky, 5
CZ-NA/AZK&7C;Mikulas, 37
CZ-NA/AZK&7C;Most, 11
CZ-NA/CGL, 888
CZ-NA/AZK, 2048
CZ-NA/AZK&7C;Vaclav, 3
CZ-NA/KVs, 400
CZ-NA/CDKM, 249
CZ-NA/AZK&7C;Smichov, 20
CZ-NA/JS, 29
CZ-NA/RF&7C;Kadan, 27
CZ-NA/AZK&7C;Borovany, 13
CZ-NA/RPi, 15
CZ-NA/RF&7C;Cheb, 37
CZ-NA/AZK&7C;Doksany, 61
CZ-NA/AZK&7C;Kladruby, 53
CZ-NA/AZK&7C;Karlov, 27
CZ-NA/UDZ-L, 523
CZ-NA/AZK&7C;Havel, 23
CZ-NA/AZK&7C;Litomysl, 55
CZ-NA/AZK&7C;Ambroz, 1
CZ-NA/FPL, 438
CZ-NA/RKr, 962
CZ-NA/AZK&7C;Anezka, 4
CZ-NA/RF, 174
CZ-NA/AZK&7C;Chotesov, 263
CZ-NA/RA, 129
CZ-NA/AZK&7C;Pohled, 66
CZ-NA/AZK&7C;Plasy, 154
CZ-NA/AZK&7C;Jiri, 150
CZ-NA/APA, 68
CZ-NA/I-KVs, 8
CZ-NA/AZK&7C;Pisek, 34
CZ-NA/AZK&7C;Zatec, 1
CZ-NA/AZK&7C;Stribro, 3
CZ-NA/AZK&7C;Bystrice, 1
CZ-NA/AZK&7C;Sazava, 1
CZ-NA/AZK&7C;Krumlov, 44
CZ-NA/AZK&7C;Cheb, 86
CZ-NA/AZK&7C;Katerina, 1
CZ-NA/AZK&7C;Trebon, 61
CZ-NA/RD, 71
CZ-NA/RM, 3125
CZ-NA/AZK&7C;Anna, 87
CZ-NA/ACK, 2551
CZ-NA/RV, 23
CZ-NA/RK, 175
CZ-NA/AZK&7C;Zbraslav, 127
CZ-NA/RBE, 2
CZ-NA/AZK&7C;Zderaz, 299
CZ-NA/RBB, 492
CZ-NA/RP, 592
ae17feaa-aa99-4264-a688-f0f07a77853a, 1
ConciliorumHispaniae, 718
CSGV, 822
AffairesPaysBas, 164
Furnensis, 155
VaterlaendischeGeschichteI, 205
472e80be-56ce-451f-bf3b-fdf27523c883, 2
SI-ZAC, 0
SI-ZAC/Minoritski, 25
SI-PAM, 0
SI-PAM/Listine, 1164
IT-ASBa, 0
IT-ASBa/ASBa_Lup, 16
IT-ASBa/ASBa_Gem, 128
IT-ASBa/ASBa_Giu, 4
IT-ASBa/ASBa_Misc, 6
IT-ASBa/ASBa_App, 40
IT-ASBa/ASBa_SGiac-dipl, 26
IT-ASBa/ASBa_Fae, 8
IT-ASBa/ASBa_SGiac-strum, 50
MedDocBulgEmp, 37
AT-StiAMh, 0
AT-StiAMh/MattighofenCan, 7
SanctaeMariaeTheuto, 999
a190bdab-1e64-4a4a-a969-36c77120e3e6, 3
AT-StiASchl, 0
AT-StiASchl/Urkunden, 739
DE-StaAMainz, 0
DE-StaAMainz/Urkunden, 1163
UrkStargard, 63
HU-MNL-DLBIRL, 0
HU-MNL-DLBIRL/LEVVBIQ425, 1
HU-MNL-DLBIRL/CURLASQ7, 83
HU-MNL-DLBIRL/TISKTQ361, 5
HU-MNL-DLBIRL/NADILPPOPQ366, 25
HU-MNL-DLBIRL/CURLPTQ12, 29
HU-MNL-DLBIRL/CURLPDQ289, 4
HU-MNL-DLBIRL/SZELQ446, 1
HU-MNL-DLBIRL/TABPAPAQ11, 501
HU-MNL-DLBIRL/CURLJNQ7, 6
AT-SLA, 0
AT-SLA/Domkapitel, 274
AT-SLA/Erzstift, 2067
AT-SLA/Chiemsee, 227
AT-HKA, 0
AT-HKA/Urkunden, 1723
AT-StiAMt, 0
AT-StiAMt/MattseeCan, 168
AT-StiAHe, 0
AT-StiAHe/StAndraeCanReg, 361
AT-StiAHe/HerzogenburgCanReg, 1861
AT-StiAHe/DuernsteinCanReg, 768
AT-StiAHe/DuernsteinOSCl, 391
CZ-ZAO, 0
CZ-ZAO/GV-TESIN, 1
CZ-ZAO/RD-TESIN, 7
CZ-ZAO/RKL-OPAVA, 56
CZ-ZAO/RD-Opava, 21
CZ-ZAO/VRNR-BRUNTAL, 6
CZ-ZAO/RJ-VARTENBERK, 1
CZ-ZAO/RK-FULNEK, 1
CZ-ZAO/RM-OPAVA, 1
CZ-ZAO/RA-FULNEK, 28
CZ-ZAO/RM-KRNOV, 14
CZ-ZAO/RJ-OPAVA, 48
CZ-ZAO/NR-OPAVA, 3
CZ-ZAO/RJ-NISA, 52
CZ-ZAO/RJ-TESIN, 7
Kirchenrecht, 92
61ebd1f0-6e2a-4181-b3b2-ecc71ed5e013, 3
AT-DAW, 0
AT-DAW/Urkunden, 1696
Henneberg, 437
AT-ATF, 0
AT-ATF/TirolOFM, 462
HR-HDA, 0
HR-HDA/643, 53
HR-HDA/644, 33
HR-HDA/MA, 11
HR-HDA/654, 20
IT-ASBN, 0
IT-ASBN/Pedicini, 46
IT-ASBN/Notai, 297
DiplomaticusLithuaniae, 31
SI-ZAL, 0
SI-ZAL/LJU_0333, 212
Moraviae, 293
DE-GLAK, 0
DE-GLAK/GLAK_34, 1798
AT-StAHorn, 0
AT-StAHorn/Pergamenturkunden, 79
AT-StAHorn/Papierurkunden, 23
PrivilegiaPortugal, 5
DocumentSaintSiege, 360
AT-DAL, 0
AT-DAL/Urkunden, 1188
UrkundenMaltzahn, 183
AFM, 6037
CSGXIII, 586
GerichteWestphalens, 194
IT-BibVall, 0
IT-BibVall/Ca_Val, 79
UrkCistercienserHeiligen, 259
DE-BPSFulda, 0
DE-BPSFulda/urkunden, 248
AT-StiALi, 0
AT-StiALi/LilienfeldOCist, 1605
WaldCanReg, 637
AT-StiAH, 0
AT-StiAH/WienOCist, 44
AT-StiAH/HeiligenkreuzOCist, 1323
Cracoviensis, 76
AT-StiAWilten, 0
AT-StiAWilten/Urkunden, 2737
UrkSchlesien, 52
AT-StaAB, 0
AT-StaAB/Urkunden, 1476
AT-DOZA, 0
AT-DOZA/Ahnenproben, 2717
AT-DOZA/Urkunden, 11569
AT-StiAA, 0
AT-StiAA/Urkunden, 987
CoblenzTrierIII, 689
KlosterCzarnowanz, 142
IlluminierteUrkundenKardinalsammelindulgenzen, 177
EE-TLA, 0
EE-TLA/HagemeistritePerekonnaleKuuluvatePaunkuela, 1
EE-TLA/TallinnaKaupmeesteEhkSuurgild, 1
EE-TLA/TallinnaMagistraat, 1522
EE-TLA/TallinnaNigulisteKogudus, 1
EE-TLA/TallinnaLinnaVaeslastekohus, 1
EE-TLA/TallinnaKanutiGild, 1
EE-TLA/TallinnaMustpeadeVennaskond, 7
HU-VFL, 0
HU-VFL/PO, 1066
HU-VFL/KO, 2168
da7833d2-4ea1-4ea2-851f-4e5e23bdc2a3, 168
UrkundenBehrI, 276
UrkundenWorbis, 23
UrkVonZollernHohenbergII, 361
AT-StaAScheibbs, 0
AT-StaAScheibbs/Urkunden, 43
fbe280e2-6065-4a9e-a002-6dae132931c1, 2
UrkundenLuebeckI, 142
AustriacoFrisingensis, 416
VaterlaendischeGeschichteII, 98
HansischerStahlhof, 232
AT-StiAZ, 0
AT-StiAZ/Urkunden, 1506
HU-MNL-DLKINL, 0
HU-MNL-DLKINL/MKAADFDGQ7, 9
HU-MNL-DLKINL/MKAKHQ7, 5
HU-MNL-DLKINL/MKAAMFSQ7, 5
HU-MNL-DLKINL/MKACKQ342, 657
HU-MNL-DLKINL/MKAUECQ344, 40
HU-MNL-DLKINL/MKAAEQ316, 2485
HU-MNL-DLKINL/MKACKAECQ353, 12
HU-MNL-DLKINL/MKAAFAQ7, 5
HU-MNL-DLKINL/MKAAFDQ321, 1
HU-MNL-DLKINL/MKAAJQ313, 1911
HU-MNL-DLKINL/MKAAFSQ318, 1
HU-MNL-DLKINL/MKAAFTQ328, 3
HU-MNL-DLKINL/MKAATQ7, 207
HU-MNL-DLKINL/MKACPQ314, 5
HU-MNL-DLKINL/MAGKLBRQ360, 2
HU-MNL-DLKINL/MKARDQ339, 3
HU-MNL-DLKINL/KIRJPZQ409, 2
HU-MNL-DLKINL/MKALQ336, 68
HU-MNL-DLKINL/MKAAPQ312, 4885
HU-MNL-DLKINL/MKAARTQ354, 7
HU-MNL-DLKINL/MKAAFFQ391, 2
HU-MNL-DLKINL/MKACCETQ315, 9
HU-MNL-DLKINL/MKAAFBQ210, 194
HU-MNL-DLKINL/MAGKLAGQ434, 3
HU-MNL-DLKINL/MKAIQ348, 1
HU-MNL-DLKINL/MKAAPQ309, 272
HU-MNL-DLKINL/MKATEQ307, 1
HU-MNL-DLKINL/MKAAEOEMQ332, 4267
HU-MNL-DLKINL/MKAAFSQ267, 124
HU-MNL-DLKINL/MKANRAQ311, 31033
HU-MNL-DLKINL/MKAAFNQ305, 749
HU-MNL-DLKINL/HAGLQ301, 30
HU-MNL-DLKINL/SZEKLMCQ341, 6
HU-MNL-DLKINL/KIRJIAQ8, 72
QuellenKoelnI, 578
DE-UAM, 0
DE-UAM/Urkunden, 470
AbteiEberbach, 364
KlosterJohannisWalsrode, 448
RIViI, 3833
CZ-SOAP, 0
CZ-SOAP/ChebSvK, 72
CZ-SOAP/AMKarlovyVary, 144
CZ-SOAP/AMSvihov, 7
CZ-SOAP/AMKolinec, 5
CZ-SOAP/AMHostoun, 13
CZ-SOAP/AOHejna, 2
CZ-SOAP/AMKlatovy, 16
CZ-SOAP/AOLovcice, 1
CZ-SOAP/AMVelhartice, 6
CZ-SOAP/AMPlanice, 8
CZ-SOAP/AMKasperskeHory, 53
CZ-SOAP/AMNalzovskeHory, 1
CZ-SOAP/AOSvojsice, 1
CZ-SOAP/AMStankov, 3
CZ-SOAP/AMPobezovice, 16
CZ-SOAP/AMRabi, 6
CZ-SOAP/AMHorsovskyTyn, 35
CZ-SOAP/AMStrazov, 8
CZ-SOAP/ChebOP, 112
CZ-SOAP/StAKlad, 25
CZ-SOAP/AMSusice, 27
CZ-SOAP/AMKdyne, 6
CZ-SOAP/AMHorazdovice, 44
CZ-SOAP/AMVseruby, 13
CZ-SOAP/AMHoryMatkyBozy, 2
CZ-SOAP/AMZeleznaRuda, 1
CZ-SOAP/AMJanoviceNadUhlavou, 2
CZ-SOAP/AOJavorna, 5
CZ-SOAP/TeplaOPraem, 370
CZ-SOAP/AMRejstejn, 6
CZ-SOAP/AMDomazlice, 64
CZ-SOAP/AOHradek, 1
CZ-SOAP/AMKlenciPodCerchovem, 6
BraunschweigLueneburg, 1232
QuellenKoelnII, 511
RSChartersHun, 23
KantonGlarus, 45
MeklenUrk, 674
AT-StaAD, 0
AT-StaAD/Urkunden, 298
ES-AHN, 0
ES-AHN/MonasterioSantoEstevo, 70
ES-AHN/SantaCombadeNaves, 30
ES-AHN/MonasterioSanPedrodeVilanovadeDozon, 95
ES-AHN/MonasterioSantaMariaRibeira, 13
ES-AHN/MonasterioSantaMariadeOseira, 951
ES-AHN/MonasterioSanPedroRocas, 26
ES-AHN/MonasterioSantaMariaSanClodio, 3
ES-AHN/MonasterioSantaMariaMontederramo, 490
ES-AHN/MonasterioSanLorenzodeCarboeiro, 20
ES-AHN/MonasterioSanSalvadordeCelanova, 110
ES-AHN/MonasterioSanSalvadordeLerez, 234
ES-AHN/MonasterioSanSalvadorDeSobrado, 15
ES-AHN/MonasterioSantaMariaMelon, 904
ES-AHN/SantaMariadeArmenteira, 681
ES-AHN/MonasterioSantaMariadeXunqueira, 18
DE-ABSP, 0
DE-ABSP/Domstift, 155
LudovicoImperatori, 16
AT-StiAG, 0
AT-StiAG/GoettweigOSB, 3047
RechtReichshofes, 703
SK-AMB, 0
SK-AMB/362, 5169
SK-AMB/437, 1
SK-AMB/462, 7
RhenoMosellanusII, 657
AT-StAKrems, 0
AT-StAKrems/Krems, 1000
AT-StAKrems/Hollenburg, 6
AT-StAKrems/Stein, 69
CSGIV, 743
UrkVonValkenstein, 43
IT-ASCA, 0
IT-ASCA/PE, 75
EE-AM, 0
EE-AM/ChristophOskarjaMarievonRiesemann, 1
EE-AM/PerekondBurchardBelavary, 3
EE-AM/PerekondUngernSternberg, 25
EE-AM/KarlErnstvonBaerLoodusteadlane, 8
EE-AM/VatlaMoisaKirjakogu, 1
EE-AM/LaekvereMoisaKirjakogu, 1
EE-AM/PaergamentuerikudKollektsioon, 314
EE-AM/PerekondvonGernet, 4
EE-AM/MaidlaMoisaKirjakogu, 30
EE-AM/KassariMoisaKirjakogu, 1
MonBoicorumIV, 207
CSGIX, 595
AT-HHStA, 1
AT-HHStA/Lanzenkirchen, 1
AT-HHStA/KirchbergCanReg, 44
AT-HHStA/KleinmariazellOSB, 1
AT-HHStA/KorneuburgOESA, 28
AT-HHStA/WNSpital, 5
AT-HHStA/PrahaStadt, 5
AT-HHStA/StillfriedPf, 1
AT-HHStA/MillstattOSB, 760
AT-HHStA/GrosspoppenPf, 37
AT-HHStA/TegernseeOSB, 1
AT-HHStA/GoerzSJ, 1
AT-HHStA/OssiachOSB, 1
AT-HHStA/WienStNiklaskloster, 1
AT-HHStA/ThalbachOFM, 20
AT-HHStA/Wien, 5
AT-HHStA/WNOFMConv, 7
AT-HHStA/GrazOFM, 6
AT-HHStA/WienKircheStMichaelStNiklasKapelle, 1
AT-HHStA/ZatecOFMConv, 1
AT-HHStA/WienStNikolaOSCI, 12
AT-HHStA/SeckauCanReg, 57
AT-HHStA/ReinOCist, 1
AT-HHStA/WNStPeterSpOP, 17
AT-HHStA/Nieder-Plank, 1
AT-HHStA/DoellersheimPf, 1
AT-HHStA/TraunseeOSB, 1
AT-HHStA/RegensburgOCarm, 1
AT-HHStA/AltenburgOSB, 4
AT-HHStA/StLambrechtOSB, 28
AT-HHStA/StBernhardOCist, 266
AT-HHStA/StPankrazPf, 1
AT-HHStA/WienOSA, 8
AT-HHStA/AUR, 213
AT-HHStA/StMichaelPf, 1
AT-HHStA/MauerbachOCart, 230
AT-HHStA/WienKoeklOSCI, 78
AT-HHStA/VelesovoOP, 23
AT-HHStA/PassauBM, 1
AT-HHStA/WienStStephanPf, 4
AT-HHStA/Hadersdorf, 1
AT-HHStA/PerchtoldsdorfPf, 3
AT-HHStA/KlingenthalOP, 2
AT-HHStA/WNOSPPE, 45
AT-HHStA/SchnalsOCart, 1
AT-HHStA/WiltenOPraem, 8
AT-HHStA/StAndraeOP, 8
AT-HHStA/WienSiechenhausKlagbaum, 1
AT-HHStA/HartPf, 1
AT-HHStA/OSPPE, 16
AT-HHStA/StValentinPf, 2
AT-HHStA/GrosswardeinOPraem, 1
AT-HHStA/WNOCarm, 11
AT-HHStA/GoessOSB, 33
AT-HHStA/FriesachOSA, 1
AT-HHStA/KirchbergWildPf, 2
AT-HHStA/NeunkirchenPf, 1
AT-HHStA/ErlaOSB, 231
AT-HHStA/HBP, 83
AT-HHStA/PerneggOPraem, 1
AT-HHStA/Rossatz, 1
AT-HHStA/Egelsee, 1
AT-HHStA/NiedernburgOSB, 1
AT-HHStA/SticnaOCist, 1
AT-HHStA/SonnenburgOSB, 3
AT-HHStA/SmichowOCart, 11
AT-HHStA/WeitraPf, 1
AT-HHStA/SbgDK, 2695
AT-HHStA/GurkBm, 6
AT-HHStA/MelkPf, 1
AT-HHStA/AdmontOSB, 7
AT-HHStA/WolfsbergOFMConv, 14
AT-HHStA/LandstrostPf, 2
AT-HHStA/ViktringOCist, 28
AT-HHStA/ZwettlOCist, 4
AT-HHStA/OberndorfPropstei, 1
AT-HHStA/BistraOCart, 32
AT-HHStA/Spitz, 4
AT-HHStA/WienStMichael, 105
AT-HHStA/WienStLaurCanReg, 123
AT-HHStA/NUK, 3
AT-HHStA/PulgarnCan, 1
AT-HHStA/WienStClaraOSCI, 267
AT-HHStA/GamingOCart, 887
AT-HHStA/WienMaMagdCanReg, 31
AT-HHStA/WienStUlrich, 1
AT-HHStA/Gerasdorf, 1
AT-HHStA/WNSJ, 1
AT-HHStA/EberndorfCanReg, 40
AT-HHStA/TrentoEbm, 1
AT-HHStA/WienSJ, 27
AT-HHStA/GoettweigOSB, 1
AT-HHStA/Aquileia, 1
AT-HHStA/HoerschingPf, 1
AT-HHStA/HohenstettenPf, 1
AT-HHStA/ObernburgOSB, 4
AT-HHStA/GoesingPf, 1
AT-HHStA/ArnsburgOCist, 1
AT-HHStA/YbbsOCist, 99
AT-HHStA/MuehlbachPf, 1
AT-HHStA/StPaulOSB, 769
AT-HHStA/WinklernPf, 1
AT-HHStA/WienOFMConv, 2
AT-HHStA/NRannaOSPPE, 28
AT-HHStA/StudeniceOP, 27
AT-HHStA/JohannNepomukSpitalWienLandstrasse, 3
AT-HHStA/StrebnitzOSB, 1
AT-HHStA/MistelbachOCarm, 3
AT-HHStA/ImbachOP, 195
AT-HHStA/NeubergOCist, 8
AT-HHStA/EggenburgPf, 40
AT-HHStA/ChiemseeUnsereLiebeFrau, 1
AT-HHStA/RadljeOP, 29
AT-HHStA/StMartinPf, 1
AT-HHStA/EbersbergOSB, 19
AT-HHStA/WNBm, 313
AT-HHStA/WienStJakobCanReg, 38
AT-HHStA/Grinzing, 1
AT-HHStA/SbgFrauenklosterStPeter, 1
AT-HHStA/WienOSBCam, 6
AT-HHStA/StGeorgenLOSB, 1
AT-HHStA/StLorenzPf, 0
AT-HHStA/SpitalamSemmeringCan, 1
AT-HHStA/StraningPf, 1
AT-HHStA/NeuhaimPf, 1
AT-HHStA/LjubljanaSJ, 2
AT-HHStA/SbgE, 12042
AT-HHStA/StPeterSchwwOSB, 1
AT-HHStA/PrahaMgd, 1
AT-HHStA/MitterndorfPf, 1
AT-HHStA/WeisskirchenPf, 1
AT-HHStA/Niederfellabrunn, 1
AT-HHStA/StainachOP, 5
AT-HHStA/GloggnitzOSB, 1
AT-HHStA/JudenburgOSCI, 11
AT-HHStA/StPoeltenBM, 1
AT-HHStA/PuckingPf, 4
AT-HHStA/GriesbachPf, 20
AT-HHStA/GleinkOSB, 1
AT-HHStA/WienOM, 1
AT-HHStA/FU, 18
AT-HHStA/WienOCarm, 125
AT-HHStA/GrossrussbachPf, 3
AT-HHStA/TullnOP, 394
AT-HHStA/MeidlingGoettweigPf, 1
AT-HHStA/FuldeppOP, 12
AT-HHStA/WienOP, 8
AT-HHStA/Windhag, 1
AT-HHStA/PlasyOCist, 4
AT-HHStA/WNOP, 38
AT-HHStA/FreudnitzOCart, 1
AT-HHStA/KremsSJ, 68
AT-HHStA/ZwettlPropstei, 2
AT-HHStA/PolaStMichaelDeMonta, 1
AT-HHStA/WNdiv, 13
AT-HHStA/MekinjeOSCI, 9
AT-HHStA/WienDreifaltigkeitskapelle, 1
AT-HHStA/SbgChiemBm, 62
AT-HHStA/StMichaelzuTschernaKonvent, 1
AT-HHStA/StLeonhardPf, 42
AT-HHStA/PletrjeOCart, 3
AT-HHStA/BerchtesgadenCanReg, 6
AT-HHStA/BrixenBm, 107
AT-HHStA/SpitalamPyhrnCan, 2
AT-HHStA/PtujOP, 5
AT-HHStA/WienBgsp, 1
AT-HHStA/WienOFM, 1
AT-HHStA/ZiceOCar, 45
AT-HHStA/LUK, 1
AT-HHStA/LindauCan, 1
AT-HHStA/MitterkirchenPf, 1
AT-HHStA/LeobenOP, 3
AT-HHStA/GarsPf, 17
AT-HHStA/ReichersdorfPf, 0
DeutscheBauernkrieg, 136
StiftMeissenI, 459
WelfenUrkundenLondon.bak, 71
AT-PfAWY, 0
AT-PfAWY/Urkunden, 271
CoblenzTrierI, 277
DEEDS, 5348
AT-StiAR, 0
AT-StiAR/ReichersbergCanReg, 2934
AT-StiASei, 0
AT-StiASei/SeitenstettenOSB, 1056
HU-MNL-DLGYUJ, 0
HU-MNL-DLGYUJ/HAZCENIQ3, 48
HU-MNL-DLGYUJ/SENQ7, 8
HU-MNL-DLGYUJ/FEKNAGQ410, 1
HU-MNL-DLGYUJ/HORTAGQ373, 163
HU-MNL-DLGYUJ/MAGTTGQ245, 145
HU-MNL-DLGYUJ/TITGQ432, 2
HU-MNL-DLGYUJ/HAJEGQ346, 21
HU-MNL-DLGYUJ/BROAHQ451, 1
HU-MNL-DLGYUJ/VITMGQ278, 43
HU-MNL-DLGYUJ/IDELEGEOMQ319, 31
HU-MNL-DLGYUJ/KISCSQ447, 9
HU-MNL-DLGYUJ/MAGNMTQ10, 12389
HU-MNL-DLGYUJ/CSADGQ284, 167
HU-MNL-DLGYUJ/VORAGQ429, 2
HU-MNL-DLGYUJ/PALGQ449, 1
HU-MNL-DLGYUJ/PELGQ390, 1
HU-MNL-DLGYUJ/DIVLIQ7, 55
HU-MNL-DLGYUJ/ROSLGQ440, 2
HU-MNL-DLGYUJ/ISMPIQ317, 858
HU-MNL-DLGYUJ/DORFHQ378, 25
HU-MNL-DLGYUJ/SOLFGQ303, 5
HU-MNL-DLGYUJ/KULCENIQ413, 1
HU-MNL-DLGYUJ/NEDSGQ362, 19
HU-MNL-DLGYUJ/SZUGQ436, 8
HU-MNL-DLGYUJ/IDEMOQ319, 15
HU-MNL-DLGYUJ/SZIGQ304, 11
HU-MNL-DLGYUJ/VARIQ439, 11
HU-MNL-DLGYUJ/ERNGQ4, 224
HU-MNL-DLGYUJ/BRIGQ418, 58
HU-MNL-DLGYUJ/MAGTAIQ364, 5
HU-MNL-DLGYUJ/KOSHGQ433, 8
HU-MNL-DLGYUJ/KPMGQ372, 28
HU-MNL-DLGYUJ/WENGGQ431, 1
HU-MNL-DLGYUJ/TAGKGQ374, 73
HU-MNL-DLGYUJ/PETGGQ356, 18
HU-MNL-DLGYUJ/ORSMGQ292, 2
SchneiderAppen, 0
CSGIII, 912
HistoireLimbourg, 340
CoblenzTrierII, 293
Mavrocordat, 68
IT-ASDRCB, 0
IT-ASDRCB/Reggio, 127
IT-ASDRCB/Bova, 75
IT-ASDRCB/Brevi, 50
BischoefeSpeyer, 738
AT-StaAWY, 0
AT-StaAWY/Urkunden, 491
65c68f1d-e406-430e-b20b-16f804e5af51, 3
RegPolBullaePontificum, 262
AT-StiARein, 0
AT-StiARein/ReinOCist, 896
c066ec33-13fd-42ff-a2fe-42c9881fcf99, 2
DE-GAUnivGoet, 0
DE-GAUnivGoet/AppDipl10E, 514
DE-GAUnivGoet/AppDiplBrondolo, 16
DE-GAUnivGoet/HS, 12
DE-GAUnivGoet/AppDiplMeyer, 283
DE-GAUnivGoet/AppDipl, 611
PassauSNikolaTB, 312
82522ec6-3393-4670-bf47-0f8417680109, 2
KlosterOtterberg, 455
672f41e1-c34a-438b-9259-ecb1649dbec3, 7
OOEUB, 3320
Dunis, 1322
KlosterDargun, 95
StiftMeissenII, 395
MZOe, 411
IlluminierteUrkundenItalien, 140
080f47e4-6277-466e-844d-a0d8a7c5b28b, 8
CH-KAE, 0
CH-KAE/Urkunden, 1040
StPCanReg, 874
RegestenFriedrichIV, 91
RO-ZAEKR, 0
RO-ZAEKR/Urkunden, 73
DE-HStAMa, 0
DE-HStAMa/urk76, 4714
DE-HStAMa/urk78, 105
DE-HStAMa/urk79, 44
DE-HStAMa/urk77, 1359
DE-HStAMa/urk80, 809
DE-HStAMa/UrkHersfeld, 2432
DE-HStAMa/Urk.37, 4620
AT-VLA, 0
AT-VLA/WoesterLechAlpe, 1
AT-VLA/RoethisGA, 12
AT-VLA/FormarinAlpe, 10
AT-VLA/HofsteigGer, 5
AT-VLA/SuguSchwaAlpen, 2
AT-VLA/LaternsGA, 13
AT-VLA/FraxernGA, 27
AT-VLA/GoefisPfA, 23
AT-VLA/ErnstRudigierNl, 11
AT-VLA/BrandPfA, 51
AT-VLA/ThalbachHirschtalKl, 1
AT-VLA/UebersaxenGA, 22
AT-VLA/BregenzPfA, 154
AT-VLA/KlausPfA, 20
AT-VLA/PfaefersKl, 1
AT-VLA/AltenburgAmt, 17
AT-VLA/KrapfNl, 6
AT-VLA/StGallenkirchPfA, 4
AT-VLA/HoechstFussachGer, 4
AT-VLA/MustrinAlpe, 1
AT-VLA/WoesterAlpe, 13
AT-VLA/ThueringenPfA, 29
AT-VLA/TisisGA, 32
AT-VLA/BregenzStadtA, 51
AT-VLA/SilbertalPfA, 138
AT-VLA/SatteinsZunftA, 1
AT-VLA/LangenPfA, 32
AT-VLA/MontafonStand, 51
AT-VLA/SchroeckenGA, 7
AT-VLA/SchnifisGA, 72
AT-VLA/RaggalPfA, 5
AT-VLA/SchoppernauGA, 37
AT-VLA/SaluverAlpe, 5
AT-VLA/IfenAlpe, 3
AT-VLA/GoetzisGA, 37
AT-VLA/BlumeneggReichshft, 98
AT-VLA/TilisunaTschaggunsAlpe, 1
AT-VLA/MittelbergGA, 1
AT-VLA/SchlinsGA, 34
AT-VLA/BildsteinPfA, 14
AT-VLA/LustenauPfA, 6
AT-VLA/BludenzPfA, 22
AT-VLA/BludenzStPeterKl, 6
AT-VLA/AltenstadtGA, 11
AT-VLA/StLuci, 2
AT-VLA/HohenemsRgft, 1399
AT-VLA/MarulPfA, 43
AT-VLA/BockshangAlpe, 5
AT-VLA/ThueringenGA, 2
AT-VLA/NenzingGA, 262
AT-VLA/SimmerbergGer, 1
AT-VLA/LudeschGA, 33
AT-VLA/KoblachGA, 21
AT-VLA/DalaasPfA, 53
AT-VLA/ZuersAlpe, 1
AT-VLA/FeldkirchRentamt, 1
AT-VLA/RankweilGA, 96
AT-VLA/MeiningenGA, 17
AT-VLA/LustenauGA, 9
AT-VLA/GambsSchlinsNl, 3
AT-VLA/HandwerksgenosseBregenz, 1
AT-VLA/BezauPfA, 16
AT-VLA/StallehrPfA, 2
AT-VLA/NuezidersGA, 35
AT-VLA/BizauGA, 13
AT-VLA/BludenzStadtA, 347
AT-VLA/TannbergZunftA, 2
AT-VLA/BregenzVogteiAOberamt, 181
AT-VLA/MaederPfA, 5
AT-VLA/LandesausschussVorarlb, 5
AT-VLA/WarthPfA, 21
AT-VLA/ValzifenzAlpe, 3
AT-VLA/DamuelsGer, 2
AT-VLA/SatteinsGA, 24
AT-VLA/SpullersAlpe, 1
AT-VLA/PfarrerGunzNl, 3
AT-VLA/LandesregierungAmt, 2
AT-VLA/LangeneggPfA, 1
AT-VLA/FormarinDalaasAlpe, 2
AT-VLA/FluhPfA, 1
AT-VLA/SchoenenbachAlpe, 2
AT-VLA/GoefisGA, 8
AT-VLA/DamuelsPfA, 45
AT-VLA/RueschGeschenk, 1
AT-VLA/BregenzerwaldGer, 367
AT-VLA/RiefensbergGA, 1
AT-VLA/BizauPfA, 10
AT-VLA/UgaDamuelsAG, 2
AT-VLA/RoensGA, 10
AT-VLA/BrazPfA, 43
AT-VLA/NofelsPfA, 6
AT-VLA/MustrinMaisaess, 1
AT-VLA/SonnenbergGer, 26
AT-VLA/RankweilSulzGer, 6
AT-VLA/SchlinsPfA, 44
AT-VLA/HofriedenGer, 9
AT-VLA/SulzbergGA, 85
AT-VLA/SaloberAlpe, 1
AT-VLA/AuPfA, 10
AT-VLA/BuchbodenGmdeamt, 1
AT-VLA/DuenserbergGA, 19
AT-VLA/JosefLipburgerNl, 52
AT-VLA/StArbogast, 3
AT-VLA/EggPfA, 22
AT-VLA/BludeschPfA, 66
AT-VLA/ohneHerkunftsangabe, 984
AT-VLA/ViktorsbergGA, 7
AT-VLA/SarotlaBuersAlpe, 1
AT-VLA/BartholomaebergGA, 1
AT-VLA/NenzingastAlpe, 1
AT-VLA/BludenzVogteiA, 202
AT-VLA/StAntonPfA, 84
AT-VLA/ThalbachKl, 21
AT-VLA/ViktorsbergKl, 16
AT-VLA/WeilerGA, 3
AT-VLA/StJohannPriorat, 88
AT-VLA/StGeroldKl, 26
AT-VLA/GaissauPfA, 6
AT-VLA/RankweilPfA, 53
AT-VLA/MittelbergGer, 66
AT-VLA/FeldkirchVogteiA, 324
AT-VLA/GwiggenGutshft, 123
AT-VLA/StellaMatutina, 25
AT-VLA/ZwischenwasserGA, 1
AT-VLA/BartholomaebergPfA, 119
AT-VLA/ZamangStGallenkiAlpe, 1
AT-VLA/FontanellaGA, 3
AT-VLA/SchwarzenbergPfA, 56
AT-VLA/LingenauGer, 2
AT-VLA/LechGA, 15
AT-VLA/HirschguntenAlpe, 1
AT-VLA/DuensGA, 24
AT-VLA/SchwarzenbergGA, 8
AT-VLA/SchroeckenPfA, 1
AT-VLA/SchrunsWassergen, 5
AT-VLA/SonntagPfA, 10
AT-VLA/SatteinsPfA, 7
AT-VLA/HansBarwartRoensDepot, 2
AT-VLA/StJohanniThurtalKl, 1
AT-VLA/MehrerauKl, 1975
AT-VLA/ValdunaKl, 69
AT-VLA/BregenzAnnakl, 2
AT-VLA/LechPfA, 51
AT-VLA/HardPfA, 19
AT-VLA/LandstaendeVorarlb, 146
AT-VLA/FussachPfA, 5
AT-VLA/FontanellaPfA, 12
AT-VLA/LaternsPfA, 60
AT-VLA/BregenzRentamt, 1
AT-VLA/ChurDomkapitel, 13
AT-VLA/RiefensbergPfA, 6
AT-VLA/BuersGA, 101
AT-VLA/ReuthePfA, 24
AT-VLA/BuchbodenPfA, 9
AT-VLA/AndelsbuchZunftA, 1
AT-VLA/KloesterlePfA, 33
AT-VLA/MaroiuAlbonaAlpen, 30
AT-VLA/ArgenDamuelsAG, 1
AT-VLA/SchnepfauGA, 26
AT-VLA/HeubergDalaasAlpe, 1
AT-VLA/AuHandwerkszunft, 4
AT-VLA/FeldkirchStadtA, 46
AT-VLA/AugustManahlNl, 1
AT-VLA/NuezidersPfA, 31
AT-VLA/SalonienAlpe, 1
AT-VLA/UnterlatoraAG, 2
AT-VLA/TannbergGer, 3
AT-VLA/GortipohlExpositurarchiv, 4
AT-VLA/MonzabonAlpe, 1
AT-VLA/GoetzisPfA, 53
AT-VLA/AlberschwendePfA, 21
AT-DAWST, 0
AT-DAWST/Cururkunden, 75
DE-StAAm, 0
DE-StAAm/EnsdorfOSB, 771
DE-StAAm/Salesianerinnen, 60
DE-StAAm/Waldsassen, 1607
DE-StAAm/Weissenohe, 142
7b78733a-44ef-4bde-b98d-53e49c8b9619, 1
IlluminierteUrkundenFrankreich, 270
CZ-SOAPraha, 0
CZ-SOAPraha/VS-Mnisek, 5
CZ-SOAPraha/DU-ZEBRAK, 1
CZ-SOAPraha/Kapitula-Karlstein, 21
CZ-SOAPraha/FU-CERHOVICE, 1
CZ-SOAPraha/AM, 3
CZ-SOAPraha/VS-Smecno, 91
CZ-SOAPraha/AMKH, 25
CZ-SOAPraha/VS-Lounovice, 1
CZ-SOAPraha/FU-BOREK, 1
CZ-SOAPraha/FU-PETROVICE, 1
CZ-SOAPraha/VS-CervenHradek, 3
CZ-SOAPraha/VS-Dobrovice, 4
CZ-SOAPraha/AUKolin, 1
CZ-SOAPraha/Kapitula-SB, 10
CZ-SOAPraha/BALysa, 5
CZ-SOAPraha/VS-Malesnov, 12
CZ-SOAPraha/DURakovnik, 4
CZ-SOAPraha/RACM, 1
CZ-SOAPraha/RA-HANAU, 29
CZ-SOAPraha/VS-Zeraslav, 3
CZ-SOAPraha/Vorsilky-KH, 6
CZ-SOAPraha/RA-Vrtba, 13
CZ-SOAPraha/Konsistor-KH, 10
CZ-SOAPraha/RAV, 228
DE-AKR, 0
DE-AKR/Urkunden, 1049
AT-AWMK, 0
AT-AWMK/WienOFMConv, 215
AT-AWMK/AsparnOFMConv, 48
AT-AWMK/NeunkirchenOFMConv, 56
AT-ADG, 0
AT-ADG/AGDK, 1562
DE-FWUBHGW, 0
DE-FWUBHGW/LSU, 88
EE-Rahvusarhiiv, 0
EE-Rahvusarhiiv/PidulaMois, 3
EE-Rahvusarhiiv/KuressaareVaeikegild, 1
EE-Rahvusarhiiv/PerekondWetterRosenthal, 2
EE-Rahvusarhiiv/EkspeditsioonifirmaThomasClayhillsetSon, 2
EE-Rahvusarhiiv/TartuVeterinaariainstituut, 1
EE-Rahvusarhiiv/VesnerijaHaavaMois, 3
EE-Rahvusarhiiv/EestimaaUeldhoolekandeKolleegium, 1
EE-Rahvusarhiiv/PerekondSchilling, 8
EE-Rahvusarhiiv/PerekondSutthoff, 4
EE-Rahvusarhiiv/VoruLinnavalitsus, 1
EE-Rahvusarhiiv/KukruseMoisaUerikuteJaPitseriteKogu, 705
EE-Rahvusarhiiv/PerekondWrangell, 77
EE-Rahvusarhiiv/EELKViruJaagupiKogudus, 4
EE-Rahvusarhiiv/RAPaernuMagistraat, 42
EE-Rahvusarhiiv/GCNoermannApteekerjaUehiskonnategelane, 1
EE-Rahvusarhiiv/PerekondEckert, 1
EE-Rahvusarhiiv/SaaremaaRueuetelkond, 39
EE-Rahvusarhiiv/PerekondKoenigsfels, 1
EE-Rahvusarhiiv/EestimaaRueuetelkond, 473
EE-Rahvusarhiiv/EELKAmblaKogudus, 1
EE-Rahvusarhiiv/VastseliinaMois, 1
EE-Rahvusarhiiv/PerekondStackelberg, 87
EE-Rahvusarhiiv/EELKSangasteKogudus, 1
EE-Rahvusarhiiv/EestimaaRootsiaegneKindralkuberner, 1
EE-Rahvusarhiiv/NarvaMagistraat, 9
EE-Rahvusarhiiv/EELKKuusaluKogudus, 1
EE-Rahvusarhiiv/ValgaRaetsepateTsunft, 1
EE-Rahvusarhiiv/PerekondBerg, 1
EE-Rahvusarhiiv/53EELKTartuJaaniKogudus, 1
EE-Rahvusarhiiv/PalmseMois, 5
EE-Rahvusarhiiv/KukruseMois, 13
EE-Rahvusarhiiv/PerekondSievers, 1
EE-Rahvusarhiiv/PerekondLintrup, 2
EE-Rahvusarhiiv/TriigiKoigiLaimetsajaPrandimois, 1
EE-Rahvusarhiiv/PerekondWenndrich, 1
EE-Rahvusarhiiv/PerekondEkesparre, 1
EE-Rahvusarhiiv/KeeriMois, 1
EE-Rahvusarhiiv/KrusensterniUerikuteKogu, 26
EE-Rahvusarhiiv/EivereMois, 3
EE-Rahvusarhiiv/PaernuPuehaMaarjaMagdaleenaVaeikegild, 1
EE-Rahvusarhiiv/PolulaMois, 2
EE-Rahvusarhiiv/PerekondEssen, 1
EE-Rahvusarhiiv/PerekondBeise, 1
EE-Rahvusarhiiv/PerekondBaranoff, 2
EE-Rahvusarhiiv/TartuMagistraat, 19
EE-Rahvusarhiiv/EELKHarjuJaaniKogudus, 1
EE-Rahvusarhiiv/PerekondBuxhoewden, 4
EE-Rahvusarhiiv/PerekondKlugen, 1
EE-Rahvusarhiiv/EugenvonNottbeckiUerikuteJaPitseriteKogu, 4
EE-Rahvusarhiiv/NarvaMuinsusselts, 4
Gedenkstukken, 168
CZ-MZA, 0
CZ-MZA/E03, 164
CZ-MZA/E04, 312
CZ-MZA/E59, 70
CZ-MZA/E50, 15
CZ-MZA/E57, 395
CZ-MZA/E33, 48
CZ-MZA/E05, 95
CZ-MZA/E02, 11
CZ-MZA/E56, 11
CZ-MZA/E51, 45
CZ-MZA/E58, 56
CZ-MZA/E27, 15
CZ-MZA/E18, 41
CZ-MZA/E11, 1
CZ-MZA/E16, 20
CZ-MZA/E44, 84
CZ-MZA/E43, 100
CZ-MZA/E17, 65
CZ-MZA/E28, 76
CZ-MZA/E10, 136
CZ-MZA/E26, 1
CZ-MZA/E19, 26
CZ-MZA/E65, 10
CZ-MZA/E07, 243
CZ-MZA/E09, 498
CZ-MZA/E31, 11
CZ-MZA/E52, 2
CZ-MZA/E55, 198
CZ-MZA/E63, 4
CZ-MZA/E64, 6
CZ-MZA/E30, 34
CZ-MZA/E08, 246
CZ-MZA/E39, 42
CZ-MZA/E06, 655
CZ-MZA/E15, 3
CZ-MZA/E12, 19
CZ-MZA/E79, 1
CZ-MZA/E41, 24
CZ-MZA/E25, 223
CZ-MZA/E71, 1
CZ-MZA/E49, 12
CZ-MZA/E40, 145
CZ-MZA/E47, 2
MonBoicorumV, 527
DE-StALB, 0
DE-StALB/DOMergentheim1, 245
DE-StALB/StAL_B509, 1155
DE-StALB/DOMergentheimStocksberg, 158
DE-StALB/DOMergentheimPolizeisachen, 246
DE-StALB/DOMuehringenHauskomtur, 45
DE-StALB/DOMergentheimGeburtsbriefe, 10
DE-StALB/DOKommendeUlmZoeschingen, 108
DE-StALB/DOKommendeMergentheimI, 420
DE-StALB/DOLothringen, 141
DE-StALB/DoMergentheimOriginalurkundenII, 245
DE-StALB/DOMergentheimGeistlichkeitII, 293
DE-StALB/DOMergentheim2, 213
DE-StALB/DOFrankenSchneidheim, 305
DE-StALB/DOKommendeMergentheimII, 518
DE-StALB/DOMergentheim4, 255
DE-StALB/DOMergentheim3, 289
DE-StALB/DOMergentheimWestfGericht, 18
DE-StALB/DOMergentheimOriginalurkundenI, 71
DE-StALB/DOAufnahmegesuche, 49
DE-StALB/DOMergentheimGeistlichkeitI, 221
DE-StALB/DOMergentheimDienerschaftI, 479
KaiserKarlderVierte, 501
HR-DAZD, 0
HR-DAZD/336, 16
AT-StiASF, 0
AT-StiASF/StFlorianCanReg, 4988
DE-HLBFulda, 0
DE-HLBFulda/urkunden, 241
WhalleyAbbeyI, 305
RS-AV, 0
RS-AV/Charters, 50
HausHunolstein, 267
engelszell, 86
BenedictinerAbteiWien, 377
DE-StAM, 0
DE-StAM/SchlossarchivPiesing, 580
AT-StiAAdm, 0
AT-StiAAdm/Urkunden, 1974
StiftKlosterneuburg, 387
HU-MNL-DLEOKL, 0
HU-MNL-DLEOKL/KKOLTQ369, 11
HU-MNL-DLEOKL/KKOLMQ325, 104
HU-MNL-DLEOKL/GYKOLLQ338, 308
HU-MNL-DLEOKL/GUBTITIGUIN2Q445, 1
HU-MNL-DLEOKL/KKOLNQ370, 269
HU-MNL-DLEOKL/KKOLMQ324, 377
HU-MNL-DLEOKL/KKOLCCQ320, 2853
HU-MNL-DLEOKL/KKOLPQ333, 4168
HU-MNL-DLEOKL/GYKOLCDCQ330, 283
HU-MNL-DLEOKL/GUBTIKLGUN5Q443, 3
HU-MNL-DLEOKL/KKOLKVIIQ326, 37
HU-MNL-DLEOKL/GYKOLMQ322, 93
HU-MNL-DLEOKL/GUBTISIGUIN1Q442, 5
HU-MNL-DLEOKL/KKOLVIQ323, 809
HU-MNL-DLEOKL/GYKOLCQ334, 987
HU-MNL-DLEOKL/GUBTILTGUIN2Q444, 2
HU-MNL-DLEOKL/GYKOLGQ371, 3
HU-MNL-DLEOKL/ERDKLEFLQ343, 1053
HU-MNL-DLEOKL/GYKOLCCQ327, 1634
HU-MNL-DLEOKL/GUBTCDQ310, 15
HU-MNL-DLEOKL/KKOLPQ340, 12
HU-MNL-DLEOKL/GYKOLPQ331, 57
HU-MNL-DLEOKL/GYKOLMQ329, 260
HU-MNL-DLEOKL/KKOLMQ368, 2
AbteiSanctGallen, 368
CodexDiplomaticusCavensis, 1666
CH-StiASG, 0
CH-StiASG/Urkunden, 4562
CH-StiASG/StiAPfae, 501
982f68db-2f69-41ab-adb5-679f20e85e26, 2
SSRQ_AR_AI_1_Nr_1, 134
WhalleyAbbeyII, 284
MarkBrandenburg, 234
AT-WStLA, 0
AT-WStLA/HAUrk, 6570
AT-WStLA/HABsp, 1081
AT-WStLA/InnUrk, 86
AT-WStLA/HAUrkAbschr, 64
AT-MAYbbsitz, 0
AT-MAYbbsitz/Urkunden, 122
AT-StiAStams, 0
AT-StiAStams/Urkunden, 2364
TortenelmiEmlekek, 161
DE-StAW, 0
DE-StAW/HimmelspfortenOCist, 601
DE-StAW/StAlbanCan, 656
DE-StAW/SchweinfurtReichsstadt, 162
DE-StAW/MIB09, 794
DE-StAW/BleidenstadtCan, 107
DE-StAW/Seligenstadt, 241
DE-StAW/EbrachOCist, 1827
DE-StAW/MIB10, 759
DE-StAW/Katzwang, 14
DE-StAW/Aschaffenburg, 201
DE-StAW/Neumuenster, 1926
MerkwuerdigeUrkundenI, 67
IT-BSNSP, 0
IT-BSNSP/28-Di_Somma, 148
IT-BSNSP/09-Gaeta_e_Varie, 27
IT-BSNSP/14-Carte_ecclesiastiche, 49
IT-BSNSP/12-Monasteri_diversi, 75
IT-BSNSP/19-S_Sebastiano, 113
IT-BSNSP/13-Bolle, 49
IT-BSNSP/27-Pignatelli, 25
IT-BSNSP/04-Censi_e_mutui, 36
IT-BSNSP/06-Privilegi_e_franchigie, 26
IT-BSNSP/29-Ulloa, 9
IT-BSNSP/18-S_Pietro_a_Castello, 36
IT-BSNSP/34-Frammenti, 8
IT-BSNSP/16-Napoli_monasteri_di_S_Gregorio_S_Arcangelo_a_Baiano_e_S_Martino, 43
IT-BSNSP/07-Lauree_dottorali, 25
IT-BSNSP/33-S_Maria_di_Portanova, 26
IT-BSNSP/32-Instrumenti_vari, 31
IT-BSNSP/37-Pergamene_Fortunato, 24
IT-BSNSP/23-Carafa_e_Ravaschieri, 35
IT-BSNSP/36-Varie_II, 23
IT-BSNSP/17-S_Maria_dellAnnunziata_di_Napoli_e_di_Salerno, 20
IT-BSNSP/03-Compre_e_vendite, 160
IT-BSNSP/26-Orsini, 59
IT-BSNSP/CarteFeudali, 234
IT-BSNSP/22-Caracciolo_Acerenza, 39
IT-BSNSP/11-S_Maria_della_Fede_S_Gaudioso, 13
IT-BSNSP/20-Bolle_di_S_Pietro_a_Castello_e_S_Sebastiano, 31
IT-BSNSP/30-Carte_feudali_nomine_e_privilegi, 32
IT-BSNSP/31-Taglialatela, 22
IT-BSNSP/21-Chiese_diverse, 37
IT-BSNSP/08-S_Maria_della_Grotta, 555
IT-BSNSP/24-Del_Balzo_Scilla, 16
IT-BSNSP/10-Napoli_Chiese_e_monasteri_diversi, 40
IT-BSNSP/35-Varie_I, 51
IT-BSNSP/25-Potenza, 95
IT-BSNSP/38-Pergamene_Ricciardi, 25
IT-BSNSP/01-Atti_giudiziari, 65
IT-BSNSP/05-Nomine_e_decorazioni, 13
IT-BSNSP/02-Atti_privati, 83
IT-BSNSP/15-S_Salvatore_in_insula_maris_SS_Teodoro_e_Sebastiano_e_SS_Sergio_e_Bacco, 17
HU-MNL-DLCSLA, 0
HU-MNL-DLCSLA/WEECSQ277, 1
HU-MNL-DLCSLA/PONCSBASQ257, 622
HU-MNL-DLCSLA/SOMOCSMICQ417, 9
HU-MNL-DLCSLA/FUZCSQ228, 29
HU-MNL-DLCSLA/VAYCSBERQ203, 2131
HU-MNL-DLCSLA/ADOCSQ420, 23
HU-MNL-DLCSLA/HORCSPALQ232, 25
HU-MNL-DLCSLA/SZICSQ269, 332
HU-MNL-DLCSLA/MISCSQ248, 28
HU-MNL-DLCSLA/DOBCSQ221, 1
HU-MNL-DLCSLA/SZICSQ268, 6
HU-MNL-DLCSLA/MARCSQ393, 32
HU-MNL-DLCSLA/HUNCSKETQ415, 5
HU-MNL-DLCSLA/ZERCSQ279, 192
HU-MNL-DLCSLA/MARCSQ246, 38
HU-MNL-DLCSLA/PETCSQ254, 18
HU-MNL-DLCSLA/HODCSQ231, 17
HU-MNL-DLCSLA/HALCSQ229, 9
HU-MNL-DLCSLA/SRECSSZAQ266, 2
HU-MNL-DLCSLA/VAYCSQ276, 76
HU-MNL-DLCSLA/KORCSQ242, 4
HU-MNL-DLCSLA/FAYCSQ226, 1
HU-MNL-DLCSLA/MEHCSQ319, 2
HU-MNL-DLCSLA/TOMCSQ274, 18
HU-MNL-DLCSLA/SIRCSQ264, 106
HU-MNL-DLCSLA/FARCSHASQ224, 13
HU-MNL-DLCSLA/HUNCSQ234, 789
HU-MNL-DLCSLA/MERCSQ247, 233
HU-MNL-DLCSLA/LUKCSETRQ118, 1
HU-MNL-DLCSLA/BITCSQ211, 120
HU-MNL-DLCSLA/HIDCSQ230, 28
HU-MNL-DLCSLA/KORCSQ347, 123
HU-MNL-DLCSLA/EOTCSVASQ411, 1
HU-MNL-DLCSLA/FARCSNAGQ225, 19
HU-MNL-DLCSLA/CSICSQ218, 3
HU-MNL-DLCSLA/BARCSQ27, 1452
HU-MNL-DLCSLA/BUSCSQ363, 8
HU-MNL-DLCSLA/ZICCSQ280, 115
HU-MNL-DLCSLA/BANCSALSQ412, 14
HU-MNL-DLCSLA/MADCSQ419, 46
HU-MNL-DLCSLA/BOTCSQ215, 91
HU-MNL-DLCSLA/KOMCSQ241, 80
HU-MNL-DLCSLA/DECCSQ421, 3
HU-MNL-DLCSLA/JOKCSQ240, 7
HU-MNL-DLCSLA/BENCSQ34, 5
HU-MNL-DLCSLA/TAJCSQ270, 143
HU-MNL-DLCSLA/CZICSQ219, 1
HU-MNL-DLCSLA/IZDCSQ237, 3
HU-MNL-DLCSLA/PLACSQ256, 13
HU-MNL-DLCSLA/CSACSQ217, 1
HU-MNL-DLCSLA/NYOCSQ251, 4
HU-MNL-DLCSLA/OSZCSQ435, 4
HU-MNL-DLCSLA/JEKCSQ238, 40
HU-MNL-DLCSLA/SIGCSQ263, 23
HU-MNL-DLCSLA/RUMCSQ260, 635
HU-MNL-DLCSLA/BORCSQ212, 1
HU-MNL-DLCSLA/BORBCSROFQ213, 3
HU-MNL-DLCSLA/MALCSQ452, 2
HU-MNL-DLCSLA/HUBCSQ233, 14
HU-MNL-DLCSLA/PETCSQ438, 1
HU-MNL-DLCSLA/TIVCSTROQ275, 110
HU-MNL-DLCSLA/ERNCSQ223, 3
HU-MNL-DLCSLA/DARCSQ220, 81
HU-MNL-DLCSLA/ORSCSQ253, 223
HU-MNL-DLCSLA/RAKOCSLANQ258, 14
HU-MNL-DLCSLA/NADCSQ249, 117
HU-MNL-DLCSLA/ABACSQ209, 49
HU-MNL-DLCSLA/LEOCSQ243, 54
HU-MNL-DLCSLA/VERCSQ426, 13
HU-MNL-DLCSLA/TAKCSQ271, 32
HU-MNL-DLCSLA/MISCSQ379, 3
HU-MNL-DLCSLA/CSACSQ401, 9
HU-MNL-DLCSLA/FRACSQ227, 152
HU-MNL-DLCSLA/NEMCSNYEQ357, 5
HU-MNL-DLCSLA/SZECSQ349, 1
HU-MNL-DLCSLA/JOOCSQ239, 9
HU-MNL-DLCSLA/THUCSQ272, 8
HU-MNL-DLCSLA/NYACSGROQ250, 64
HU-MNL-DLCSLA/IVACSQ236, 40
HU-MNL-DLCSLA/BINVQ255, 80
HU-MNL-DLCSLA/ROSCSQ259, 2
HU-MNL-DLCSLA/SPOCSQ265, 2
HU-MNL-DLCSLA/PALCSQ414, 4
HU-MNL-DLCSLA/BOSCSQ214, 311
HU-MNL-DLCSLA/RUDCSQ162, 250
HU-MNL-DLCSLA/PIRCSQ441, 7
HU-MNL-DLCSLA/LIPCSQ244, 82
HU-MNL-DLCSLA/SIDCSQ262, 2
HU-MNL-DLCSLA/LEUCSZOLQ424, 20
HU-MNL-DLCSLA/HARCSQ395, 6
HU-MNL-DLCSLA/DORCSGROQ222, 48
HU-MNL-DLCSLA/OVACSGYOQ352, 34
HU-MNL-DLCSLA/ZICCSNAGQ377, 2
NikolaasKerk, 226
AbbayeDeSaintBertin, 344
IlluminierteUrkundenLombardei, 300
DE-AVBautzen, 0
DE-AVBautzen/Urkunden, 4433
IT-BST, 0
IT-BST/BST, 263
EpiscopatusRatisbonensis, 460
MonGermanicarum, 56
CZ-DABB, 0
CZ-DABB/TLC, 15
CZ-DABB/BRT, 3
CZ-DABB/ZNMICH, 2
CZ-DABB/ROZ, 1
CZ-DABB/KM, 55
CZ-DABB/LOM, 1
CZ-DABB/KB, 142
CZ-DABB/BOB, 29
CZ-DABB/KRT, 1
CZ-DABB/BKB, 29
CZ-DABB/KOV, 13
CZ-DABB/VNE, 1
CZ-DABB/STE, 1
CZ-DABB/KNC, 1
CZ-DABB/ZID, 2
CZ-DABB/BDK, 1
CZ-DABB/DNS, 3
CZ-DABB/ZNM, 13
CZ-DABB/BOSD, 1
CZ-DABB/SRC, 2
DE-BAH, 0
DE-BAH/Knochenhaueramt, 11
DE-BAH/StPauliundDominikaner, 5
DE-BAH/VinkensteinscheStiftung, 5
DE-BAH/KongrLuechtenhof, 4
DE-BAH/Wandschneidergilde, 1
DE-BAH/Nikolaikirche, 1
DE-BAH/AltstadtHildesheim, 28
DE-BAH/UrkDP, 36
DE-BAH/Pantaleonskapelle, 2
DE-BAH/UrkDK, 35
DE-BAH/LambertikircheinderNeustadt, 14
DE-BAH/UrkHS, 90
DE-BAH/LambertikircheinderAltstadt, 2
DE-BAH/Aegidienkapelle, 2
DE-BAH/StadtvogtzuHildesheim, 7
DE-BAH/NeustadtHildesheim, 32
DE-BAH/Franziskanerkloster, 4
DE-BAH/Jakobikirche, 1
DE-BAH/Baeckeramt, 4
DE-BAH/Rademachergilde, 1
DE-BAH/Jesuiten, 6
DE-BAH/KSSchuesselkorb, 13
DE-BAH/Schusteramt, 1
DE-BAH/KatharinenhospitalvordemOstertor, 6
DE-BAH/Georgenkirche, 1
DE-BAH/Schneidergilde, 1
DE-BAH/KapelleStCyriaki, 8
DE-BAH/UrkStMi, 112
ES-ACC, 0
ES-ACC/documentos, 486
SchlesischeUrkundenJuden, 43
AT-StiAScho, 0
AT-StiAScho/SchottenOSB, 967
RS-IAGNS, 0
RS-IAGNS/Charters, 8
AT-StiAGe, 0
AT-StiAGe/Urkunden, 376
DE-BayHStA, 1
DE-BayHStA/KUAldersbach, 1939
DE-BayHStA/KUVilshofen, 664
DE-BayHStA/HUPassau, 4067
DE-BayHStA/HUChiemsee, 147
DE-BayHStA/KUFrauenchiemsee, 1550
DE-BayHStA/HUBrixen, 86
DE-BayHStA/KUAltenhohenau, 900
DE-BayHStA/KUAltoettingChorstift, 525
DE-BayHStA/KUKuehbach, 148
DE-BayHStA/KUAltoettingJesuiten, 42
DE-BayHStA/SalzburgErzstiftKonsistorium, 11
DE-BayHStA/KUFormbach, 176
DE-BayHStA/KUAltomuenster, 665
DE-BayHStA/PassauDomkapitel, 7146
DE-BayHStA/SalzburgDomkapitel, 401
DE-BayHStA/KUOsterhofen, 38
DE-BayHStA/KUAsbach, 496
DE-BayHStA/KUPassauStSalvator, 361
DE-BayHStA/KUMuenchenAngerkloster, 1686
DE-BayHStA/KUPassauStNikola, 5472
DE-BayHStA/KUPassauNiedernburg, 1207
DE-BayHStA/KURegensburgStEmmeram, 4735
DE-BayHStA/TrientHochstift, 5
DE-BayHStA/KURanshofen, 386
DE-BayHStA/SalzburgLandschaft, 9
DE-BayHStA/KUFuerstenzell, 1069
DE-BayHStA/HUSalzburgErzstift, 625
DE-BayHStA/KURaitenhaslach, 1810
DE-BayHStA/KURohr, 617
DE-BayHStA/KUWindberg, 1112
DE-BayHStA/KUNiederaltaich, 2640
DE-BayHStA/KUHoeglwoerth, 207
DE-BayHStA/KUMuenchen-Puetrichhaus, 338
DE-BayHStA/KUNeuburgDonau, 528
Laureshamensis, 1771
CSGVII, 721
CodexBrandenburgensisII, 512
WelfenUrkundenLondon, 71
DeuKoenigeKaiser, 1089
HU-MNL-DLBLKI, 0
HU-MNL-DLBLKI/BECLKIQ2, 196
DE-LKAEKKW, 0
DE-LKAEKKW/UGudensberg, 24
DE-LKAEKKW/UMelsungen, 76
DE-LKAEKKW/UNiedenstein, 64
AT-StiAMB, 0
AT-StiAMB/MuellnOSA, 445
AT-StiAMB/MbOSB, 3763
AT-StiAKr, 0
AT-StiAKr/KremsmuensterOSB, 2399
KremsStein, 42
HU-MFL, 0
HU-MFL/Toeroekiratok, 124
IlluminierteUrkundenCimelia, 98
UrkSteinford, 107
987c81b9-832e-4921-8506-abc809a31a8e, 1
MonPalatinum, 109
IlluminierteUrkundenKurie, 191
CodexRudolfi, 222
UrkVonKardorff, 39
SerbianRoyalDocumentsDubrovnik, 205
Westfaliae, 196
ReichstagAugsburg, 148
KlosterGoellingen, 38
UrkundenMaehren, 416
AT-MVKu, 0
AT-MVKu/Urkunden, 12
DE-ZAEKPf, 0
DE-ZAEKPf/Urkunden, 446
DE-LHAKO, 0
DE-LHAKO/210, 1038
DE-LHAKO/128, 846
DE-LHAKO/164, 286
DE-LHAKO/55A2, 276
DE-LHAKO/55A4, 674
AeviSaxonici, 164
BenedictinerStiftesSeitenstetten, 257
HolsteinLauenburg, 116
PL-APL, 0
PL-APL/Charters, 20
AT-PfAWei, 0
AT-PfAWei/Urkunden, 105
AT-MAGresten, 0
AT-MAGresten/Urkunden, 26
HausHohenlohe, 163
AT-StiANK, 0
AT-StiANK/NeuklosterOCist, 510
CodexBrandenburgensisIII, 537
IT-ASNA, 0
IT-ASNA/Varie-II, 25
IT-ASNA/ASAg, 324
